#include(macros.inc)

%Coupled model
[top]
components: QuantityTraded0@QuantityTradedtop flow2Converter0@flow2Convertertop quantityDemand0@quantityDemandtop quantitySupply0@quantitySupplytop  DEVS_BASIC_COUPLED_Price Coef0@Coeftop DemandCoef0@DemandCoeftop ExogenousDemand0@ExogenousDemandtop ExogenousSupply0@ExogenousSupplytop SupplyCoef0@SupplyCoeftop firstPulse0@firstPulsetop interval0@intervaltop volume0@volumetop
% In ports
in: in_port_Coef in_port_DemandCoef in_port_ExogenousDemand in_port_ExogenousSupply in_port_SupplyCoef in_port_firstPulse in_port_interval in_port_volume
% Out ports
out: out_port_Flow1 out_port_Flow2 out_port_Price out_port_QuantityTraded out_port_flow2Converter out_port_quantityDemand out_port_quantitySupply
% Input connections
link: in_port_Coef in_port_Coef@Coef0
link: in_port_DemandCoef in_port_DemandCoef@DemandCoef0
link: in_port_ExogenousDemand in_port_ExogenousDemand@ExogenousDemand0
link: in_port_ExogenousSupply in_port_ExogenousSupply@ExogenousSupply0
link: in_port_SupplyCoef in_port_SupplyCoef@SupplyCoef0
link: in_port_firstPulse in_port_firstPulse@firstPulse0
link: in_port_interval in_port_interval@interval0
link: in_port_volume in_port_volume@volume0
% Output connections
link: out_port_Flow1@DEVS_BASIC_COUPLED_Price out_port_Flow1
link: out_port_Flow2@DEVS_BASIC_COUPLED_Price out_port_Flow2
link: out_port_Price@DEVS_BASIC_COUPLED_Price out_port_Price
link: out_port_QuantityTraded@QuantityTraded0 out_port_QuantityTraded
link: out_port_flow2Converter@flow2Converter0 out_port_flow2Converter
link: out_port_quantityDemand@quantityDemand0 out_port_quantityDemand
link: out_port_quantitySupply@quantitySupply0 out_port_quantitySupply
% Internal connections
link: out_port_Coef@Coef0 in_port_Coef@DEVS_BASIC_COUPLED_Price
link: out_port_firstPulse@firstPulse0 in_port_firstPulse@DEVS_BASIC_COUPLED_Price
link: out_port_interval@interval0 in_port_interval@DEVS_BASIC_COUPLED_Price
link: out_port_quantityDemand@quantityDemand0 in_port_quantityDemand@DEVS_BASIC_COUPLED_Price
link: out_port_quantitySupply@quantitySupply0 in_port_quantitySupply@DEVS_BASIC_COUPLED_Price
link: out_port_volume@volume0 in_port_volume@DEVS_BASIC_COUPLED_Price
link: out_port_quantityDemand@quantityDemand0 in_port_quantityDemand@QuantityTraded0
link: out_port_quantitySupply@quantitySupply0 in_port_quantitySupply@QuantityTraded0
link: out_port_Flow2@DEVS_BASIC_COUPLED_Price in_port_Flow2@flow2Converter0
link: out_port_DemandCoef@DemandCoef0 in_port_DemandCoef@quantityDemand0
link: out_port_ExogenousDemand@ExogenousDemand0 in_port_ExogenousDemand@quantityDemand0
link: out_port_Price@DEVS_BASIC_COUPLED_Price in_port_Price@quantityDemand0
link: out_port_ExogenousSupply@ExogenousSupply0 in_port_ExogenousSupply@quantitySupply0
link: out_port_Price@DEVS_BASIC_COUPLED_Price in_port_Price@quantitySupply0
link: out_port_SupplyCoef@SupplyCoef0 in_port_SupplyCoef@quantitySupply0
%Coupled model
[DEVS_BASIC_COUPLED_Price]
components: Flow1_Price1@Flow1_PriceDEVS_BASIC_COUPLED_Price Flow2_Price1@Flow2_PriceDEVS_BASIC_COUPLED_Price TotPrice1@TotPriceDEVS_BASIC_COUPLED_Price Price1@PriceDEVS_BASIC_COUPLED_Price PULSE_V_volume_I_interval_Flow21@PULSE_V_volume_I_interval_Flow2DEVS_BASIC_COUPLED_Price
% In ports
in: in_port_Coef in_port_firstPulse in_port_interval in_port_quantityDemand in_port_quantitySupply in_port_volume
% Out ports
out: out_port_Flow1 out_port_Flow2 out_port_Price
% Input connections
link: in_port_Coef in_port_Coef@Flow1_Price1
link: in_port_quantityDemand in_port_quantityDemand@Flow1_Price1
link: in_port_quantitySupply in_port_quantitySupply@Flow1_Price1
link: in_port_firstPulse in_port_firstPulse@PULSE_V_volume_I_interval_Flow21
link: in_port_interval in_port_interval@PULSE_V_volume_I_interval_Flow21
link: in_port_volume in_port_volume@PULSE_V_volume_I_interval_Flow21
% Output connections
link: out_port_Flow1@Flow1_Price1 out_port_Flow1
link: out_port_Flow2@Flow2_Price1 out_port_Flow2
link: out_port_Price@Price1 out_port_Price
% Internal connections
link: out_port_PULSE_V_volume_I_interval_Flow2@PULSE_V_volume_I_interval_Flow21 in_port_PULSE_V_volume_I_interval_Flow2@Flow2_Price1
link: out_port_TotPrice@TotPrice1 in_port_TotPrice@Price1
link: out_port_Flow1_Price@Flow1_Price1 in_plus_port_Flow1_Price@TotPrice1
link: out_port_Flow2_Price@Flow2_Price1 in_plus_port_Flow2_Price@TotPrice1
[Price1]
% Atomic model DEVSIntegrator
x0: 5
non_negative: 0
dQMin: 0.001
dQRel: 0.001
