Months,converter1,converter2,converter3,Flow1,stock1,sumValue
1,80.8,-0.87,55.63,-0.87,1000,1080.8
1.25,79.95,-0.8125,55.8482142857,-0.8125,1000.2175,1080.1675
1.5,79.1,-0.755,56.0664285714,-0.755,1000.420625,1079.520625
1.75,78.25,-0.6975,56.232,-0.6975,1000.609375,1078.859375
2,77.4,-0.64,56.388,-0.64,1000.78375,1078.18375
2.25,77.175,-0.615,56.544,-0.615,1000.94375,1078.11875
2.5,76.95,-0.59,56.7,-0.59,1001.0975,1078.0475
2.75,76.725,-0.565,56.856,-0.565,1001.245,1077.97
3,76.5,-0.54,57.012,-0.54,1001.38625,1077.88625
3.25,76.275,-0.4575,57.168,-0.4575,1001.52125,1077.79625
3.5,76.05,-0.375,57.324,-0.375,1001.635625,1077.685625
3.75,75.825,-0.2925,57.48,-0.2925,1001.729375,1077.554375
4,75.6,-0.21,57.636,-0.21,1001.8025,1077.4025
4.25,75.5,-0.14,57.792,-0.14,1001.855,1077.355
4.5,75.4,-0.07,57.948,-0.07,1001.89,1077.29
4.75,75.3,2.77555756156e-17,58.104,2.77555756156e-17,1001.9075,1077.2075
5,75.2,0.07,58.26,0.07,1001.9075,1077.1075
5.25,75,0.165,58.416,0.165,1001.89,1076.89
5.5,74.8,0.26,58.62,0.26,1001.84875,1076.64875
5.75,74.6,0.355,58.88,0.355,1001.78375,1076.38375
6,74.4,0.45,59.14,0.45,1001.695,1076.095
6.25,88.3,0.49125,59.4,0.49125,1001.5825,1089.8825
6.5,102.2,0.5325,59.66,0.5325,1001.4596875,1103.6596875
6.75,116.1,0.57375,59.92,0.57375,1001.3265625,1117.4265625
7,130,0.615,60.18,0.615,1001.183125,1131.183125
7.25,130,0.65625,60.44,0.65625,1001.029375,1131.029375
7.5,130,0.6975,60.7,0.6975,1000.8653125,1130.8653125
7.75,130,0.73875,60.965625,0.73875,1000.6909375,1130.6909375
8,130,0.78,61.25,0.78,1000.50625,1130.50625
8.25,130,0.84,61.534375,0.84,1000.31125,1130.31125
8.5,130,0.9,61.81875,0.9,1000.10125,1130.10125
8.75,130,0.96,62.103125,0.96,999.87625,1129.87625
9,130,1.02,62.3875,1.02,999.63625,1129.63625
9.25,130,1.0775,62.671875,1.0775,999.38125,1129.38125
9.5,130,1.135,62.95625,1.135,999.111875,1129.111875
9.75,130,1.1925,63.240625,1.1925,998.828125,1128.828125
10,130,1.25,63.525,1.25,998.53,1128.53
10.25,130,1.28625,63.809375,1.28625,998.2175,1128.2175
10.5,130,1.3225,64.09375,1.3225,997.8959375,1127.8959375
10.75,130,1.35875,64.378125,1.35875,997.5653125,1127.5653125
11,130,1.395,64.64,1.395,997.225625,1127.225625
11.25,131.25,1.43125,64.9,1.43125,996.876875,1128.126875
11.5,132.5,1.4675,65.16,1.4675,996.5190625,1129.0190625
11.75,133.75,1.50375,65.42,1.50375,996.1521875,1129.9021875
12,135,1.54,65.68,1.54,995.77625,1130.77625
12.25,136.25,1.5975,65.94,1.5975,995.39125,1131.64125
12.5,137.5,1.655,66.2,1.655,994.991875,1132.491875
12.75,138.75,1.7125,66.46,1.7125,994.578125,1133.328125
13,140,1.77,66.72,1.77,994.15,1134.15
13.25,140,1.8425,66.926,1.8425,993.7075,1133.7075
13.5,140,1.915,67.108,1.915,993.246875,1133.246875
13.75,140,1.9875,67.29,1.9875,992.768125,1132.768125
14,140,2.06,67.472,2.06,992.27125,1132.27125
14.25,140,2.08375,67.654,2.08375,991.75625,1131.75625
14.5,140,2.1075,67.836,2.1075,991.2353125,1131.2353125
14.75,140,2.13125,68.018,2.13125,990.7084375,1130.7084375
15,140,2.155,68.2,2.155,990.175625,1130.175625
15.25,140,2.17875,68.382,2.17875,989.636875,1129.636875
15.5,140,2.2025,68.564,2.2025,989.0921875,1129.0921875
15.75,140,2.22625,68.746,2.22625,988.5415625,1128.5415625
16,140,2.25,68.928,2.25,987.985,1127.985
16.25,142.5,2.295,69.11,2.295,987.4225,1129.9225
16.5,145,2.34,69.292,2.34,986.84875,1131.84875
16.75,147.5,2.385,69.474,2.385,986.26375,1133.76375
17,150,2.43,69.6675,2.43,985.6675,1135.6675
17.25,150.833333333,2.4775,69.886875,2.4775,985.06,1135.89333333
17.5,151.666666667,2.525,70.10625,2.525,984.440625,1136.10729167
17.75,152.5,2.5725,70.325625,2.5725,983.809375,1136.309375
18,153.333333333,2.62,70.545,2.62,983.16625,1136.49958333
18.25,154.166666667,2.6325,70.764375,2.6325,982.51125,1136.67791667
18.5,155,2.645,70.98375,2.645,981.853125,1136.853125
18.75,155.833333333,2.6575,71.203125,2.6575,981.191875,1137.02520833
19,156.666666667,2.67,71.4225,2.67,980.5275,1137.19416667
19.25,157.5,2.7175,71.641875,2.7175,979.86,1137.36
19.5,158.333333333,2.765,71.86125,2.765,979.180625,1137.51395833
19.75,159.166666667,2.8125,72.080625,2.8125,978.489375,1137.65604167
20,160,2.86,72.3,2.86,977.78625,1137.78625
20.25,160,2.885,72.495,2.885,977.07125,1137.07125
20.5,160,2.91,72.69,2.91,976.35,1136.35
20.75,160,2.935,72.885,2.935,975.6225,1135.6225
21,160,2.96,73.08,2.96,974.88875,1134.88875
21.25,162.5,2.9825,73.275,2.9825,974.14875,1136.64875
21.5,165,3.005,73.47,3.005,973.403125,1138.403125
21.75,167.5,3.0275,73.665,3.0275,972.651875,1140.151875
22,170,3.05,73.86,3.05,971.895,1141.895
22.25,172.5,3.0725,74.055,3.0725,971.1325,1143.6325
22.5,175,3.095,74.25,3.095,970.364375,1145.364375
22.75,177.5,3.1175,74.445,3.1175,969.590625,1147.090625
23,180,3.14,74.64,3.14,968.81125,1148.81125
23.25,181.25,3.1525,74.862,3.1525,968.02625,1149.27625
23.5,182.5,3.165,75.096,3.165,967.238125,1149.738125
23.75,183.75,3.1775,75.33,3.1775,966.446875,1150.196875
24,185,3.19,75.564,3.19,965.6525,1150.6525
24.25,186.25,3.215,75.798,3.215,964.855,1151.105
24.5,187.5,3.24,76.032,3.24,964.05125,1151.55125
24.75,188.75,3.265,76.266,3.265,963.24125,1151.99125
25,190,3.29,76.5,3.29,962.425,1152.425
25.25,192.5,3.3125,76.734,3.3125,961.6025,1154.1025
25.5,195,3.335,76.968,3.335,960.774375,1155.774375
25.75,197.5,3.3575,77.202,3.3575,959.940625,1157.440625
26,200,3.38,77.436,3.38,959.10125,1159.10125
26.25,202.5,3.3925,77.67,3.3925,958.25625,1160.75625
26.5,205,3.405,77.904,3.405,957.408125,1162.408125
26.75,207.5,3.4175,78.138,3.4175,956.556875,1164.056875
27,210,3.43,78.3675,3.43,955.7025,1165.7025
27.25,210,3.43,78.586875,3.43,954.845,1164.845
27.5,210,3.43,78.80625,3.43,953.9875,1163.9875
27.75,210,3.43,79.025625,3.43,953.13,1163.13
28,210,3.43,79.245,3.43,952.2725,1162.2725
28.25,211.25,3.43,79.464375,3.43,951.415,1162.665
28.5,212.5,3.43,79.68375,3.43,950.5575,1163.0575
28.75,213.75,3.43,79.903125,3.43,949.7,1163.45
29,215,3.43,80.1225,3.43,948.8425,1163.8425
29.25,216.25,3.43,80.341875,3.43,947.985,1164.235
29.5,217.5,3.43,80.56125,3.43,947.1275,1164.6275
29.75,218.75,3.43,80.780625,3.43,946.27,1165.02
30,220,3.43,81,3.43,945.4125,1165.4125
30.25,225,3.43,81.2275,3.43,944.555,1169.555
30.5,230,3.43,81.455,3.43,943.6975,1173.6975
30.75,235,3.43,81.6825,3.43,942.84,1177.84
31,240,3.43,81.91,3.43,941.9825,1181.9825
31.25,240,3.4175,82.1375,3.4175,941.125,1181.125
31.5,240,3.405,82.365,3.405,940.270625,1180.270625
31.75,240,3.3925,82.5925,3.3925,939.419375,1179.419375
32,240,3.38,82.82,3.38,938.57125,1178.57125
32.25,240,3.3675,83.0475,3.3675,937.72625,1177.72625
32.5,240,3.355,83.275,3.355,936.884375,1176.884375
32.75,240,3.3425,83.5025,3.3425,936.045625,1176.045625
33,240,3.33,83.73,3.33,935.21,1175.21
33.25,242.5,3.3075,83.926,3.3075,934.3775,1176.8775
33.5,245,3.285,84.108,3.285,933.550625,1178.550625
33.75,247.5,3.2625,84.29,3.2625,932.729375,1180.229375
34,250,3.24,84.472,3.24,931.91375,1181.91375
34.25,252.5,3.2275,84.654,3.2275,931.10375,1183.60375
34.5,255,3.215,84.836,3.215,930.296875,1185.296875
34.75,257.5,3.2025,85.018,3.2025,929.493125,1186.993125
35,260,3.19,85.2,3.19,928.6925,1188.6925
35.25,261.25,3.155,85.382,3.155,927.895,1189.145
35.5,262.5,3.12,85.564,3.12,927.10625,1189.60625
35.75,263.75,3.085,85.746,3.085,926.32625,1190.07625
36,265,3.05,85.928,3.05,925.555,1190.555
36.25,266.25,3.0275,86.11,3.0275,924.7925,1191.0425
36.5,267.5,3.005,86.292,3.005,924.035625,1191.535625
36.75,268.75,2.9825,86.474,2.9825,923.284375,1192.034375
37,270,2.96,86.6775,2.96,922.53875,1192.53875
37.25,271.25,2.9225,86.929375,2.9225,921.79875,1193.04875
37.5,272.5,2.885,87.18125,2.885,921.068125,1193.568125
37.75,273.75,2.8475,87.433125,2.8475,920.346875,1194.096875
38,275,2.81,87.685,2.81,919.635,1194.635
38.25,276.25,2.8,87.936875,2.8,918.9325,1195.1825
38.5,277.5,2.79,88.18875,2.79,918.2325,1195.7325
38.75,278.75,2.78,88.440625,2.78,917.535,1196.285
39,280,2.77,88.6925,2.77,916.84,1196.84
39.25,282.5,2.7325,88.944375,2.7325,916.1475,1198.6475
39.5,285,2.695,89.19625,2.695,915.464375,1200.464375
39.75,287.5,2.6575,89.448125,2.6575,914.790625,1202.290625
40,290,2.62,89.7,2.62,914.12625,1204.12625
40.25,292.5,2.5975,89.9166666667,2.5975,913.47125,1205.97125
40.5,295,2.575,90.1333333333,2.575,912.821875,1207.821875
40.75,297.5,2.5525,90.35,2.5525,912.178125,1209.678125
41,300,2.53,90.5666666667,2.53,911.54,1211.54
41.25,302.5,2.4825,90.7833333333,2.4825,910.9075,1213.4075
41.5,305,2.435,91,2.435,910.286875,1215.286875
41.75,307.5,2.3875,91.2166666667,2.3875,909.678125,1217.178125
42,310,2.34,91.4333333333,2.34,909.08125,1219.08125
42.25,310,2.245,91.65,2.245,908.49625,1218.49625
42.5,310,2.15,91.825,2.15,907.935,1217.935
42.75,310,2.055,91.9875,2.055,907.3975,1217.3975
43,310,1.96,92.15,1.96,906.88375,1216.88375
43.25,312.5,1.89,92.3125,1.89,906.39375,1218.89375
43.5,315,1.82,92.475,1.82,905.92125,1220.92125
43.75,317.5,1.75,92.6375,1.75,905.46625,1222.96625
44,320,1.68,92.8,1.68,905.02875,1225.02875
44.25,322.5,1.6075,92.9625,1.6075,904.60875,1227.10875
44.5,325,1.535,93.125,1.535,904.206875,1229.206875
44.75,327.5,1.4625,93.2875,1.4625,903.823125,1231.323125
45,330,1.39,93.45,1.39,903.4575,1233.4575
45.25,330,1.32,93.6125,1.32,903.11,1233.11
45.5,330,1.25,93.74,1.25,902.78,1232.78
45.75,330,1.18,93.8266666667,1.18,902.4675,1232.4675
46,330,1.11,93.9133333333,1.11,902.1725,1232.1725
46.25,330,1.0275,94,1.0275,901.895,1231.895
46.5,330,0.945,94.0866666667,0.945,901.638125,1231.638125
46.75,330,0.8625,94.1733333333,0.8625,901.401875,1231.401875
47,330,0.78,94.26,0.78,901.18625,1231.18625
47.25,335,0.71,94.3466666667,0.71,900.99125,1235.99125
47.5,340,0.64,94.4333333333,0.64,900.81375,1240.81375
47.75,345,0.57,94.53,0.57,900.65375,1245.65375
48,350,0.5,94.66,0.5,900.51125,1250.51125
48.25,352.5,0.3575,94.79,0.3575,900.38625,1252.88625
48.5,355,0.215,94.92,0.215,900.296875,1255.296875
48.75,357.5,0.0725,95.05,0.0725,900.243125,1257.743125
49,360,-0.07,95.18,-0.07,900.225,1260.225
49.25,362.5,-0.2125,95.31375,-0.2125,900.2425,1262.7425
49.5,365,-0.355,95.4925,-0.355,900.295625,1265.295625
49.75,367.5,-0.4975,95.67125,-0.4975,900.384375,1267.884375
50,370,-0.64,95.85,-0.64,900.50875,1270.50875
50.25,370,-0.6975,96.02875,-0.6975,900.66875,1270.66875
50.5,370,-0.755,96.2075,-0.755,900.843125,1270.843125
50.75,370,-0.8125,96.38625,-0.8125,901.031875,1271.031875
51,370,-0.87,96.4,-0.87,901.235,1271.235
51.25,370,-0.99,96.4,-0.99,901.4525,1271.4525
51.5,370,-1.11,96.4,-1.11,901.7,1271.7
51.75,370,-1.23,96.4,-1.23,901.9775,1271.9775
52,370,-1.35,96.4,-1.35,902.285,1272.285
52.25,372.5,-1.515,96.4,-1.515,902.6225,1275.1225
52.5,375,-1.68,96.4,-1.68,903.00125,1278.00125
52.75,377.5,-1.845,96.4,-1.845,903.42125,1280.92125
53,380,-2.01,96.4,-2.01,903.8825,1283.8825
53.25,382.5,-2.07,96.4,-2.07,904.385,1286.885
53.5,385,-2.13,96.4,-2.13,904.9025,1289.9025
53.75,387.5,-2.19,96.4,-2.19,905.435,1292.935
54,390,-2.25,96.48,-2.25,905.9825,1295.9825
54.25,390,-2.32,96.61,-2.32,906.545,1296.545
54.5,390,-2.39,96.74,-2.39,907.125,1297.125
54.75,390,-2.46,96.8,-2.46,907.7225,1297.7225
55,390,-2.53,96.8,-2.53,908.3375,1298.3375
55.25,390,-2.6375,96.8,-2.6375,908.97,1298.97
55.5,390,-2.745,96.8,-2.745,909.629375,1299.629375
55.75,390,-2.8525,96.8,-2.8525,910.315625,1300.315625
56,390,-2.96,96.8,-2.96,911.02875,1301.02875
56.25,392.5,-2.9825,96.75,-2.9825,911.76875,1304.26875
56.5,395,-3.005,96.62,-3.005,912.514375,1307.514375
56.75,397.5,-3.0275,96.49,-3.0275,913.265625,1310.765625
57,400,-3.05,92.41,-3.05,914.0225,1314.0225
57.25,402.5,-3.12,79.4425,-3.12,914.785,1317.285
57.5,405,-3.19,66.475,-3.19,915.565,1320.565
57.75,407.5,-3.26,56.485,-3.26,916.3625,1323.8625
58,410,-3.33,56.42,-3.33,917.1775,1327.1775
58.25,410,-3.4025,56.355,-3.4025,918.01,1328.01
58.5,410,-3.475,56.29,-3.475,918.860625,1328.860625
58.75,410,-3.5475,56.225,-3.5475,919.729375,1329.729375
59,410,-3.62,56.16,-3.62,920.61625,1330.61625
59.25,412.5,-3.66125,56.08,-3.66125,921.52125,1334.02125
59.5,415,-3.7025,55.82,-3.7025,922.4365625,1337.4365625
59.75,417.5,-3.74375,55.56,-3.74375,923.3621875,1340.8621875
60,420,-3.785,55.3,-3.785,924.298125,1344.298125
60.25,422.5,-3.84875,55.17,-3.84875,925.244375,1347.744375
60.5,425,-3.9125,55.04,-3.9125,926.2065625,1351.2065625
60.75,427.5,-3.97625,54.91,-3.97625,927.1846875,1354.6846875
61,430,-4.04,54.57,-4.04,928.17875,1358.17875
61.25,430,-4.1,54.2125,-4.1,929.18875,1359.18875
61.5,430,-4.16,53.855,-4.16,930.21375,1360.21375
61.75,430,-4.22,53.47,-4.22,931.25375,1361.25375
62,430,-4.28,53.08,-4.28,932.30875,1362.30875
62.25,432.5,-4.3275,52.69,-4.3275,933.37875,1365.87875
62.5,435,-4.375,52.3,-4.375,934.460625,1369.460625
62.75,437.5,-4.4225,51.91,-4.4225,935.554375,1373.054375
63,440,-4.47,51.52,-4.47,936.66,1376.66
63.25,442.5,-4.5175,51.31,-4.5175,937.7775,1380.2775
63.5,445,-4.565,51.18,-4.565,938.906875,1383.906875
63.75,447.5,-4.6125,51.05,-4.6125,940.048125,1387.548125
64,450,-4.66,50.76,-4.66,941.20125,1391.20125
64.25,451.25,-4.695,50.37,-4.695,942.36625,1393.61625
64.5,452.5,-4.73,49.98,-4.73,943.54,1396.04
64.75,453.75,-4.765,49.38,-4.765,944.7225,1398.4725
65,455,-4.8,48.6,-4.8,945.91375,1400.91375
65.25,456.25,-4.835,47.82,-4.835,947.11375,1403.36375
65.5,457.5,-4.87,47.055,-4.87,948.3225,1405.8225
65.75,458.75,-4.905,46.3075,-4.905,949.54,1408.29
66,460,-4.94,45.56,-4.94,950.76625,1410.76625
66.25,462.5,-4.9525,45.1875,-4.9525,952.00125,1414.50125
66.5,465,-4.965,45.415,-4.965,953.239375,1418.239375
66.75,467.5,-4.9775,45.6425,-4.9775,954.480625,1421.980625
67,470,-4.99,45.8,-4.99,955.725,1425.725
67.25,475,-5.0125,45.8,-5.0125,956.9725,1431.9725
67.5,480,-5.035,45.8,-5.035,958.225625,1438.225625
67.75,485,-5.0575,45.8,-5.0575,959.484375,1444.484375
68,490,-5.08,45.8,-5.08,960.74875,1450.74875
68.25,490,-5.0925,45.8,-5.0925,962.01875,1452.01875
68.5,490,-5.105,45.82,-5.105,963.291875,1453.291875
68.75,490,-5.1175,45.95,-5.1175,964.568125,1454.568125
69,490,-5.13,46.08,-5.13,965.8475,1455.8475
69.25,495,-5.14125,46.2,-5.14125,967.13,1462.13
69.5,500,-5.1525,46.2,-5.1525,968.4153125,1468.4153125
69.75,505,-5.16375,46.2,-5.16375,969.7034375,1474.7034375
70,510,-5.175,46.2,-5.175,970.994375,1480.994375
70.25,510,-5.18625,46.2,-5.18625,972.288125,1482.288125
70.5,510,-5.1975,46.2,-5.1975,973.5846875,1483.5846875
70.75,510,-5.20875,46.2,-5.20875,974.8840625,1484.8840625
71,510,-5.22,46.2,-5.22,976.18625,1486.18625
71.25,515,-5.2325,46.2,-5.2325,977.49125,1492.49125
71.5,520,-5.245,46.2,-5.245,978.799375,1498.799375
71.75,525,-5.2575,46.145,-5.2575,980.110625,1505.110625
72,530,-5.27,46.08,-5.27,981.425,1511.425
72.25,535,-5.2825,46.015,-5.2825,982.7425,1517.7425
72.5,540,-5.295,45.95,-5.295,984.063125,1524.063125
72.75,545,-5.3075,45.885,-5.3075,985.386875,1530.386875
73,550,-5.32,45.82,-5.32,986.71375,1536.71375
73.25,552.5,-5.3425,45.5525,-5.3425,988.04375,1540.54375
73.5,555,-5.365,45.195,-5.365,989.379375,1544.379375
73.75,557.5,-5.3875,44.8375,-5.3875,990.720625,1548.220625
74,560,-5.41,44.78,-5.41,992.0675,1552.0675
74.25,562.5,-5.41,44.91,-5.41,993.42,1555.92
74.5,565,-5.41,45.04,-5.41,994.7725,1559.7725
74.75,567.5,-5.41,45.1,-5.41,996.125,1563.625
75,570,-5.41,45.1,-5.41,997.4775,1567.4775
75.25,575,-5.435,45.1,-5.435,998.83,1573.83
75.5,580,-5.46,45.1,-5.46,1000.18875,1580.18875
75.75,585,-5.485,45.1,-5.485,1001.55375,1586.55375
76,590,-5.51,45.1,-5.51,1002.925,1592.925
76.25,592.5,-5.51,45.1875,-5.51,1004.3025,1596.8025
76.5,595,-5.51,45.415,-5.51,1005.68,1600.68
76.75,597.5,-5.51,45.6425,-5.51,1007.0575,1604.5575
77,600,-5.51,45.8,-5.51,1008.435,1608.435
77.25,607.5,-5.51,45.8,-5.51,1009.8125,1617.3125
77.5,615,-5.51,45.8,-5.51,1011.19,1626.19
77.75,622.5,-5.51,45.83,-5.51,1012.5675,1635.0675
78,630,-5.51,45.96,-5.51,1013.945,1643.945
78.25,637.5,-5.51,46.09,-5.51,1015.3225,1652.8225
78.5,645,-5.51,46.2,-5.51,1016.7,1661.7
78.75,652.5,-5.51,46.2,-5.51,1018.0775,1670.5775
79,660,-5.51,46.2,-5.51,1019.455,1679.455
79.25,670,-5.51,46.22,-5.51,1020.8325,1690.8325
79.5,680,-5.51,46.48,-5.51,1022.21,1702.21
79.75,690,-5.51,46.74,-5.51,1023.5875,1713.5875
80,700,-5.51,47,-5.51,1024.965,1724.965
80.25,702.5,-5.51,47.13,-5.51,1026.3425,1728.8425
80.5,705,-5.51,47.26,-5.51,1027.72,1732.72
80.75,707.5,-5.51,47.39,-5.51,1029.0975,1736.5975
81,710,-5.51,47.76,-5.51,1030.475,1740.475
81.25,715,-5.5225,48.15,-5.5225,1031.8525,1746.8525
81.5,720,-5.535,48.54,-5.535,1033.233125,1753.233125
81.75,725,-5.5475,48.82,-5.5475,1034.616875,1759.616875
82,730,-5.56,49.08,-5.56,1036.00375,1766.00375
82.25,732.5,-5.56,49.34,-5.56,1037.39375,1769.89375
82.5,735,-5.56,49.5,-5.56,1038.78375,1773.78375
82.75,737.5,-5.56,49.63,-5.56,1040.17375,1777.67375
83,740,-5.56,49.76,-5.56,1041.56375,1781.56375
83.25,742.5,-5.56,49.98,-5.56,1042.95375,1785.45375
83.5,745,-5.56,50.24,-5.56,1044.34375,1789.34375
83.75,747.5,-5.56,50.5,-5.56,1045.73375,1793.23375
84,750,-5.56,50.68,-5.56,1047.12375,1797.12375
84.25,752.5,-5.56,50.81,-5.56,1048.51375,1801.01375
84.5,755,-5.56,50.94,-5.56,1049.90375,1804.90375
84.75,757.5,-5.56,51.14,-5.56,1051.29375,1808.79375
85,760,-5.56,51.4,-5.56,1052.68375,1812.68375
85.25,765,-5.56,51.66,-5.56,1054.07375,1819.07375
85.5,770,-5.56,51.86,-5.56,1055.46375,1825.46375
85.75,775,-5.56,51.99,-5.56,1056.85375,1831.85375
86,780,-5.56,52.12,-5.56,1058.24375,1838.24375
86.25,781.25,-5.5475,52.25,-5.5475,1059.63375,1840.88375
86.5,782.5,-5.535,52.38,-5.535,1061.020625,1843.520625
86.75,783.75,-5.5225,52.51,-5.5225,1062.404375,1846.154375
87,785,-5.51,52.64,-5.51,1063.785,1848.785
87.25,786.25,-5.475,52.77,-5.475,1065.1625,1851.4125
87.5,787.5,-5.44,52.9,-5.44,1066.53125,1854.03125
87.75,788.75,-5.405,53.09,-5.405,1067.89125,1856.64125
88,790,-5.37,53.48,-5.37,1069.2425,1859.2425
88.25,792.5,-5.3575,53.87,-5.3575,1070.585,1863.085
88.5,795,-5.345,54.215,-5.345,1071.924375,1866.924375
88.75,797.5,-5.3325,54.3125,-5.3325,1073.260625,1870.760625
89,800,-5.32,54.41,-5.32,1074.59375,1874.59375
89.25,802.5,-5.3075,54.52,-5.3075,1075.92375,1878.42375
89.5,805,-5.295,54.78,-5.295,1077.250625,1882.250625
89.75,807.5,-5.2825,55.04,-5.2825,1078.574375,1886.074375
90,810,-5.27,55.3,-5.27,1079.895,1889.895
90.25,812.5,-5.2575,55.43,-5.2575,1081.2125,1893.7125
90.5,815,-5.245,55.56,-5.245,1082.526875,1897.526875
90.75,817.5,-5.2325,55.69,-5.2325,1083.838125,1901.338125
91,820,-5.22,55.94,-5.22,1085.14625,1905.14625
91.25,822.5,-5.185,56.2,-5.185,1086.45125,1908.95125
91.5,825,-5.15,56.46,-5.15,1087.7475,1912.7475
91.75,827.5,-5.115,56.72,-5.115,1089.035,1916.535
92,830,-5.08,56.98,-5.08,1090.31375,1920.31375
92.25,830,-5.07,57.24,-5.07,1091.58375,1921.58375
92.5,830,-5.06,57.5,-5.06,1092.85125,1922.85125
92.75,830,-5.05,57.76,-5.05,1094.11625,1924.11625
93,830,-5.04,58.02,-5.04,1095.37875,1925.37875
93.25,832.5,-5.015,58.19,-5.015,1096.63875,1929.13875
93.5,835,-4.99,58.32,-4.99,1097.8925,1932.8925
93.75,837.5,-4.965,58.45,-4.965,1099.14,1936.64
94,840,-4.94,58.58,-4.94,1100.38125,1940.38125
94.25,840,-4.8925,58.71,-4.8925,1101.61625,1941.61625
94.5,840,-4.845,58.84,-4.845,1102.839375,1942.839375
94.75,840,-4.7975,58.97,-4.7975,1104.050625,1944.050625
95,840,-4.75,59.1,-4.75,1105.25,1945.25
95.25,840,-4.6925,59.23,-4.6925,1106.4375,1946.4375
95.5,840,-4.635,59.36,-4.635,1107.610625,1947.610625
95.75,840,-4.5775,59.49,-4.5775,1108.769375,1948.769375
96,840,-4.52,59.62,-4.52,1109.91375,1949.91375
96.25,840,-4.46,59.75,-4.46,1111.04375,1951.04375
96.5,840,-4.4,59.88,-4.4,1112.15875,1952.15875
96.75,840,-4.34,60.01,-4.34,1113.25875,1953.25875
97,840,-4.28,60.14,-4.28,1114.34375,1954.34375
97.25,840,-4.185,60.27,-4.185,1115.41375,1955.41375
97.5,840,-4.09,60.4,-4.09,1116.46,1956.46
97.75,840,-3.995,60.56,-3.995,1117.4825,1957.4825
98,840,-3.9,60.82,-3.9,1118.48125,1958.48125
98.25,840,-3.8775,61.08,-3.8775,1119.45625,1959.45625
98.5,840,-3.855,61.3,-3.855,1120.425625,1960.425625
98.75,840,-3.8325,61.3,-3.8325,1121.389375,1961.389375
99,840,-3.81,61.3,-3.81,1122.3475,1962.3475
99.25,847.5,-3.16,61.3875,-3.16,1123.3,1970.8
99.5,855,-2.51,62.525,-2.51,1124.09,1979.09
99.75,862.5,-1.86,63.6625,-1.86,1124.7175,1987.2175
100,870,-1.21,64.8,-1.21,1125.1825,1995.1825
