#include(macros.inc)

%Coupled model
[top]
components:  DEVS_BASIC_COUPLED_Infected  DEVS_BASIC_COUPLED_Recovered  DEVS_BASIC_COUPLED_Susceptibles Duration0@Durationtop InfectionRate0@InfectionRatetop TotalPopulation0@TotalPopulationtop
% In ports
in: in_port_Duration in_port_InfectionRate in_port_TotalPopulation
% Out ports
out: out_port_Infected out_port_Recovered out_port_Recovering out_port_Succumbing out_port_Susceptibles
% Input connections
link: in_port_Duration in_port_Duration@Duration0
link: in_port_InfectionRate in_port_InfectionRate@InfectionRate0
link: in_port_TotalPopulation in_port_TotalPopulation@TotalPopulation0
% Output connections
link: out_port_Infected@DEVS_BASIC_COUPLED_Infected out_port_Infected
link: out_port_Recovered@DEVS_BASIC_COUPLED_Recovered out_port_Recovered
link: out_port_Recovering@DEVS_BASIC_COUPLED_Infected out_port_Recovering
link: out_port_Recovering@DEVS_BASIC_COUPLED_Recovered out_port_Recovering
link: out_port_Succumbing@DEVS_BASIC_COUPLED_Infected out_port_Succumbing
link: out_port_Succumbing@DEVS_BASIC_COUPLED_Susceptibles out_port_Succumbing
link: out_port_Susceptibles@DEVS_BASIC_COUPLED_Susceptibles out_port_Susceptibles
% Internal connections
link: out_port_Duration@Duration0 in_port_Duration@DEVS_BASIC_COUPLED_Infected
link: out_port_InfectionRate@InfectionRate0 in_port_InfectionRate@DEVS_BASIC_COUPLED_Infected
link: out_port_Susceptibles@DEVS_BASIC_COUPLED_Susceptibles in_port_Susceptibles@DEVS_BASIC_COUPLED_Infected
link: out_port_TotalPopulation@TotalPopulation0 in_port_TotalPopulation@DEVS_BASIC_COUPLED_Infected
link: out_port_Duration@Duration0 in_port_Duration@DEVS_BASIC_COUPLED_Recovered
link: out_port_Infected@DEVS_BASIC_COUPLED_Infected in_port_Infected@DEVS_BASIC_COUPLED_Recovered
link: out_port_Infected@DEVS_BASIC_COUPLED_Infected in_port_Infected@DEVS_BASIC_COUPLED_Susceptibles
link: out_port_InfectionRate@InfectionRate0 in_port_InfectionRate@DEVS_BASIC_COUPLED_Susceptibles
link: out_port_TotalPopulation@TotalPopulation0 in_port_TotalPopulation@DEVS_BASIC_COUPLED_Susceptibles
%Coupled model
[DEVS_BASIC_COUPLED_Infected]
components: Recovering_Infected1@Recovering_InfectedDEVS_BASIC_COUPLED_Infected Succumbing_Infected1@Succumbing_InfectedDEVS_BASIC_COUPLED_Infected TotInfected1@TotInfectedDEVS_BASIC_COUPLED_Infected Infected1@InfectedDEVS_BASIC_COUPLED_Infected
% In ports
in: in_port_Duration in_port_InfectionRate in_port_Susceptibles in_port_TotalPopulation
% Out ports
out: out_port_Infected out_port_Recovering out_port_Succumbing
% Input connections
link: in_port_Duration in_port_Duration@Recovering_Infected1
link: in_port_InfectionRate in_port_InfectionRate@Succumbing_Infected1
link: in_port_Susceptibles in_port_Susceptibles@Succumbing_Infected1
link: in_port_TotalPopulation in_port_TotalPopulation@Succumbing_Infected1
% Output connections
link: out_port_Infected@Infected1 out_port_Infected
link: out_port_Recovering@Recovering_Infected1 out_port_Recovering
link: out_port_Succumbing@Succumbing_Infected1 out_port_Succumbing
% Internal connections
link: out_port_TotInfected@TotInfected1 in_port_TotInfected@Infected1
link: out_port_Infected@Infected1 in_port_Infected@Recovering_Infected1
link: out_port_Infected@Infected1 in_port_Infected@Succumbing_Infected1
link: out_port_Recovering_Infected@Recovering_Infected1 in_minus_port_Recovering_Infected@TotInfected1
link: out_port_Succumbing_Infected@Succumbing_Infected1 in_plus_port_Succumbing_Infected@TotInfected1
[Infected1]
% Atomic model DEVSIntegrator
x0: 5
non_negative: 0
dQMin: 0.0001
dQRel: 0.0001

%Coupled model
[DEVS_BASIC_COUPLED_Recovered]
components: Recovering_Recovered1@Recovering_RecoveredDEVS_BASIC_COUPLED_Recovered TotRecovered1@TotRecoveredDEVS_BASIC_COUPLED_Recovered Recovered1@RecoveredDEVS_BASIC_COUPLED_Recovered
% In ports
in: in_port_Duration in_port_Infected
% Out ports
out: out_port_Recovered out_port_Recovering
% Input connections
link: in_port_Duration in_port_Duration@Recovering_Recovered1
link: in_port_Infected in_port_Infected@Recovering_Recovered1
% Output connections
link: out_port_Recovered@Recovered1 out_port_Recovered
link: out_port_Recovering@Recovering_Recovered1 out_port_Recovering
% Internal connections
link: out_port_TotRecovered@TotRecovered1 in_port_TotRecovered@Recovered1
link: out_port_Recovering_Recovered@Recovering_Recovered1 in_plus_port_Recovering_Recovered@TotRecovered1
[Recovered1]
% Atomic model DEVSIntegrator
x0: 0
non_negative: 0
dQMin: 0.0001
dQRel: 0.0001

%Coupled model
[DEVS_BASIC_COUPLED_Susceptibles]
components: Succumbing_Susceptibles1@Succumbing_SusceptiblesDEVS_BASIC_COUPLED_Susceptibles TotSusceptibles1@TotSusceptiblesDEVS_BASIC_COUPLED_Susceptibles Susceptibles1@SusceptiblesDEVS_BASIC_COUPLED_Susceptibles
% In ports
in: in_port_Infected in_port_InfectionRate in_port_TotalPopulation
% Out ports
out: out_port_Succumbing out_port_Susceptibles
% Input connections
link: in_port_Infected in_port_Infected@Succumbing_Susceptibles1
link: in_port_InfectionRate in_port_InfectionRate@Succumbing_Susceptibles1
link: in_port_TotalPopulation in_port_TotalPopulation@Succumbing_Susceptibles1
% Output connections
link: out_port_Succumbing@Succumbing_Susceptibles1 out_port_Succumbing
link: out_port_Susceptibles@Susceptibles1 out_port_Susceptibles
% Internal connections
link: out_port_Susceptibles@Susceptibles1 in_port_Susceptibles@Succumbing_Susceptibles1
link: out_port_TotSusceptibles@TotSusceptibles1 in_port_TotSusceptibles@Susceptibles1
link: out_port_Succumbing_Susceptibles@Succumbing_Susceptibles1 in_minus_port_Succumbing_Susceptibles@TotSusceptibles1
[Susceptibles1]
% Atomic model DEVSIntegrator
x0: 995
non_negative: 0
dQMin: 0.0001
dQRel: 0.0001
