Seconds,Duration,Infected,InfectionRate,Recovered,Recovering,Succumbing,Susceptibles,TotalPopulation
0,5,5,0.3,0,1,16.5833333333,995,1000
0.05,5,5.84272776303,0.3,0.0541047425712,1.08209485142,17.9366501119,994.103167494,1000
0.1,5,6.82638993963,0.3,0.117323490108,1.26437495073,20.9376184828,993.05628657,1000
0.15,5,7.9741535907,0.3,0.191178569391,1.47710158566,24.4323746071,991.83466784,1000
0.2,5,9.31284779483,0.3,0.277441872417,1.72526606052,28.4991501431,990.409710333,1000
0.25,5,10.87348933,0.3,0.378174058455,2.01464372076,33.2274744237,988.748336612,1000
0.3,5,12.6918642429,0.3,0.495769292561,2.35190468213,38.7194029406,986.812366465,1000
0.35,5,14.8091636275,0.3,0.633006073632,2.74473562142,45.090723313,984.557830299,1000
0.4,5,17.2726681612,0.3,0.793104670588,3.20197193911,52.4720626133,981.934227168,1000
0.45,5,20.1364705951,0.3,0.979791605498,3.73373869821,61.0097873755,978.883737799,1000
0.5,5,23.4622180213,0.3,1.19737147944,4.35159747878,70.8665460034,975.340410499,1000
0.55,5,27.3198458707,0.3,1.45080620803,5.06869457182,82.2212515597,971.229347921,1000
0.6,5,31.7882627267,0.3,1.74580139154,5.89990367018,95.2682407899,966.465935882,1000
0.65,5,36.9559287565,0.3,2.08889905678,6.86195330488,110.215273901,960.955172187,1000
0.7,5,42.9212506135,0.3,2.48757533947,7.97352565369,127.279962794,954.591174047,1000
0.75,5,49.7926922028,0.3,2.95034078949,9.25530900048,146.684140787,947.256967008,1000
0.8,5,57.6884745296,0.3,3.48683984646,10.7299811395,168.645627675,938.824685624,1000
0.85,5,66.735710807,0.3,4.10794462923,12.4220956553,193.366821203,929.156344564,1000
0.9,5,77.0687984048,0.3,4.82583651799,14.3578377753,221.019589732,918.105365077,1000
0.95,5,88.8268723335,0.3,5.65406712979,16.5646122359,251.726090809,905.519060537,1000
1,5,102.150123322,0.3,6.60758831012,19.0704236067,285.535443369,891.242288368,1000
1.05,5,117.17480699,0.3,7.70273888598,21.9030115171,322.396684882,875.122454124,1000
1.1,5,134.026830568,0.3,8.95717445467,25.0887113739,362.129182939,857.015994977,1000
1.15,5,152.813911298,0.3,10.3897258422,28.6510277498,404.392642341,836.79636286,1000
1.2,5,173.616463992,0.3,12.0201725748,32.6089346533,448.659988536,814.363363433,1000
1.25,5,196.477594032,0.3,13.8689203348,36.9749552,494.197556006,789.653485633,1000
1.3,5,221.392832583,0.3,15.9565764106,41.7531215162,540.057892541,762.650591006,1000
1.35,5,248.300520741,0.3,18.3034248835,46.9369694573,585.0907326,733.396054376,1000
1.4,5,277.073976283,0.3,20.9288135553,52.5077734368,627.976884295,701.997210161,1000
1.45,5,307.516693035,0.3,23.8504766645,58.4332621831,667.287597207,668.632830301,1000
1.5,5,339.361759112,0.3,27.083829792,64.66706255,701.568384093,633.554411096,1000
1.55,5,372.276387291,0.3,30.641283959,71.14908334,729.441646921,597.08232875,1000
1.6,5,405.871923635,0.3,34.5316323921,77.8069686631,749.717695556,559.596443972,1000
1.65,5,439.718997575,0.3,38.7595636834,84.5586258247,761.500104613,521.521438742,1000
1.7,5,473.366718646,0.3,43.3253478938,91.3156842076,764.27010562,483.307933461,1000
1.75,5,506.364171963,0.3,48.2247277817,97.9875977583,757.936664114,445.411100255,1000
1.8,5,538.282070545,0.3,53.4490276189,104.485996744,742.84396837,408.268901837,1000
1.85,5,568.732387239,0.3,58.9854701471,110.728850565,719.735184445,372.282142614,1000
1.9,5,597.384122301,0.3,64.8176718387,116.64403383,689.678735081,337.79820586,1000
1.95,5,623.973981456,0.3,70.9262710973,122.171985172,653.969168266,305.099747447,1000
2,5,648.311496184,0.3,77.2896355236,127.267288526,614.017583087,274.398868293,1000
2.05,5,670.278849223,0.3,83.884593425,131.899158029,571.246218807,245.836557352,1000
2.1,5,689.826241142,0.3,90.6871404161,136.050939821,526.998778209,219.486618442,1000
2.15,5,706.963976029,0.3,97.6730822263,139.718836204,482.473533939,195.362941745,1000
2.2,5,721.752548548,0.3,104.81858732,142.910101884,438.681552263,173.428864132,1000
2.25,5,734.29192377,0.3,112.100635439,145.640962376,396.428466816,153.607440791,1000
2.3,5,744.710983555,0.3,119.49735907,147.934472613,356.315668326,135.791657375,1000
2.35,5,753.157839612,0.3,126.988283247,149.818483533,318.755604666,119.853877141,1000
2.4,5,759.791440797,0.3,134.5544747,151.32382906,283.99585275,105.654084504,1000
2.45,5,764.774667893,0.3,142.178614436,152.482794723,252.147336651,93.0467176713,1000
2.5,5,768.268930422,0.3,149.845008821,153.327887713,223.2131383,81.8860607563,1000
2.55,5,770.430159449,0.3,157.539553736,153.890898299,197.115478831,72.0302868148,1000
2.6,5,771.406020891,0.3,165.249664921,154.202223704,173.719452536,63.344314188,1000
2.65,5,771.334144288,0.3,172.964185711,154.290415795,152.852883745,55.7016700007,1000
2.7,5,770.341160397,0.3,180.673281265,154.18191107,134.322233254,48.985558338,1000
2.75,5,768.542356795,0.3,188.368326413,153.900902968,117.924830931,43.0893167915,1000
2.8,5,766.04178568,0.3,196.04179245,153.469320741,103.457898428,37.9164218701,1000
2.85,5,762.932686317,0.3,203.687136677,152.906884539,90.7248972886,33.3801770056,1000
2.9,5,759.298112408,0.3,211.298697277,152.231212006,79.5397338243,29.4031903144,1000
2.95,5,755.211679811,0.3,218.871595128,151.457957009,69.7293050742,25.9167250607,1000
3,5,750.738371646,0.3,226.401643419,150.600965817,61.134802507,22.8599849354,1000
3.05,5,745.935355495,0.3,233.885265417,149.672439957,53.6121169486,20.1793790879,1000
3.1,5,740.8527815,0.3,241.319420325,148.683098175,47.0316182737,17.8277981742,1000
3.15,5,735.53454095,0.3,248.701536943,147.642332362,41.2775213482,15.7639221068,1000
3.2,5,730.018973103,0.3,256.029454656,146.558354252,36.246997323,13.9515722407,1000
3.25,5,724.339513891,0.3,263.301371208,145.438331039,31.8491467843,12.3591149015,1000
3.3,5,718.525284317,0.3,270.515796663,144.2885091,28.0039176332,10.9589190198,1000
3.35,5,712.601619267,0.3,277.671512947,143.114325681,24.6410246864,9.7268677855,1000
3.4,5,706.590539248,0.3,284.767538392,141.920508906,21.6989085117,8.64192235991,1000
3.45,5,700.511168746,0.3,291.803096728,140.711166711,19.1237566772,7.68573452606,1000
3.5,5,694.380105483,0.3,298.777590005,139.489865541,16.8686002788,6.84230451212,1000
3.55,5,688.211745069,0.3,305.690574988,138.259699654,14.8924913703,6.0976799436,1000
3.6,5,682.018565569,0.3,312.541742587,137.023351979,13.1597619933,5.43969184393,1000
3.65,5,675.811376315,0.3,319.330899955,135.783147378,11.6393622782,4.85772373002,1000
3.7,5,669.599535011,0.3,326.057954914,134.541099173,10.3042731009,4.34251007498,1000
3.75,5,663.391136908,0.3,332.7229024,133.298949716,9.1309876615,3.8859606919,1000
3.8,5,657.193179415,0.3,339.325812686,132.058205713,8.09905585163,3.48100789932,1000
3.85,5,651.011705227,0.3,345.866821133,130.820168949,7.19068517687,3.12147364048,1000
3.9,5,644.851926686,0.3,352.346119283,129.585962994,6.39039217873,2.80195403154,1000
3.95,5,638.718333797,0.3,358.763947103,128.356556405,5.68469863414,2.51771909984,1000
4,5,632.614788016,0.3,365.120586246,127.13278287,5.06186724133,2.26462573777,1000
4.05,5,626.544603679,0.3,371.416354182,125.915358703,4.51167197172,2.03904213918,1000
4.1,5,620.510618715,0.3,377.651599083,124.704898032,4.0251987477,1.8377822018,1000
4.15,5,614.515256044,0.3,383.826695383,123.501925987,3.59467257427,1.65804857308,1000
4.2,5,608.560576921,0.3,389.94203989,122.306890157,3.21330769367,1.4973831884,1000
4.25,5,602.648327281,0.3,395.998048417,121.120170539,2.87517774116,1.35362430134,1000
4.3,5,596.779978034,0.3,401.995152827,119.942088193,2.57510325178,1.22486913875,1000
4.35,5,590.956760106,0.3,407.933798465,118.772912756,2.30855420256,1.10944142863,1000
4.4,5,585.179694936,0.3,413.814441914,117.612868991,2.07156557306,1.00586314997,1000
4.45,5,579.44962102,0.3,419.637549038,116.462142477,1.86066417098,0.912829941424,1000
4.5,5,573.767217052,0.3,425.403593267,115.320884575,1.67280520174,0.829189681337,1000
4.55,5,568.133022078,0.3,431.113054104,114.189216743,1.50531726476,0.753923818099,1000
4.6,5,562.547453094,0.3,436.76641582,113.067234312,1.35585463626,0.686131086286,1000
4.65,5,557.010820398,0.3,442.364166308,111.955009773,1.2223558532,0.625013293626,1000
4.7,5,551.523341003,0.3,447.906796091,110.852595646,1.103007747,0.569862906276,1000
4.75,5,546.085150363,0.3,453.394797441,109.760026997,0.996214191736,0.520052196689,1000
4.8,5,540.696312628,0.3,458.828663622,108.677323625,0.900568932062,0.475023750086,1000
4.85,5,535.356829626,0.3,464.208888221,107.604491988,0.814831943091,0.434282152931,1000
4.9,5,530.066648724,0.3,469.535964565,106.541526883,0.737908849088,0.397386710477,1000
4.95,5,524.825669728,0.3,474.810385211,105.488412919,0.668832992774,0.363945060838,1000
5,5,519.633750927,0.3,480.032641502,104.445125812,0.606749802623,0.333607570707,1000
5.05,5,514.490714409,0.3,485.203223178,103.411633516,0.550903153656,0.306062413024,1000
5.1,5,509.396350721,0.3,490.322618039,102.387897222,0.500623458598,0.281031240094,1000
5.15,5,504.350422973,0.3,495.39131165,101.373872232,0.455317261985,0.258265376995,1000
5.2,5,499.352670443,0.3,500.409787087,100.369508727,0.414458140556,0.237542469967,1000
5.25,5,494.402811758,0.3,505.378524709,99.3747524489,0.377578739752,0.21866353298,1000
5.3,5,489.500547683,0.3,510.298001974,98.3895452927,0.344263799049,0.201450343027,1000
5.35,5,484.645563593,0.3,515.168693266,97.413825834,0.314144038502,0.185743141102,1000
5.4,5,479.837531644,0.3,519.991069755,96.4475297917,0.286890795961,0.171398601304,1000
5.45,5,475.076112688,0.3,524.765599277,95.4905904366,0.262211319027,0.158288035353,1000
5.5,5,470.360957971,0.3,529.492746225,94.5429389523,0.239844628542,0.146295803926,1000
5.55,5,465.691710628,0.3,534.172971462,93.6045047531,0.219557881349,0.135317909858,1000
5.6,5,461.068006998,0.3,538.806732251,92.6752157657,0.201143169515,0.125260751382,1000
5.65,5,456.489477799,0.3,543.394482184,91.7549986776,0.184414701414,0.116040016312,1000
5.7,5,451.955749157,0.3,547.936671142,90.8437791571,0.169206317143,0.107579700455,1000
5.75,5,447.46644352,0.3,552.433745245,89.9414820471,0.155369296899,0.0998112356096,1000
5.8,5,443.021180464,0.3,556.886146821,89.0480315374,0.142770426244,0.0926727142974,1000
5.85,5,438.619577413,0.3,561.294314387,88.1633513168,0.131290286819,0.0861081999564,1000
5.9,5,434.261250265,0.3,565.658682623,87.2873647076,0.120821745042,0.0800671127043,1000
5.95,5,429.945813956,0.3,569.979682362,86.4199947845,0.11126861484,0.0745036819623,1000
6,5,425.672882956,0.3,574.257740586,85.5611644802,0.102544473446,0.06937645829,1000
6.05,5,421.442071702,0.3,578.49328042,84.7107966786,0.0945716119352,0.0646478776932,1000
6.1,5,417.252994993,0.3,582.686721135,83.8688142972,0.0872801044689,0.0602838724698,1000
6.15,5,413.105268324,0.3,586.838478153,83.0351403599,0.0806069821817,0.0562535233607,1000
6.2,5,408.998508196,0.3,590.948963056,82.2096980618,0.0744954993975,0.0525287483908,1000
6.25,5,404.932332379,0.3,595.018583597,81.3924108257,0.0688944813669,0.0490840243225,1000
6.3,5,400.906360148,0.3,599.047743715,80.5832023524,0.0637577440355,0.0458961371207,1000
6.35,5,396.920212494,0.3,603.036843548,79.7819966654,0.059043577508,0.0429439582453,1000
6.4,5,392.973512301,0.3,606.986279455,78.988718149,0.0547142858762,0.0402082439515,1000
6.45,5,389.06588451,0.3,610.896444035,78.2032915836,0.0507357769624,0.0376714551034,1000
6.5,5,385.196956261,0.3,614.767726143,77.425642175,0.0470771962989,0.0353175952884,1000
6.55,5,381.366357012,0.3,618.600510922,76.6556955809,0.0437106003373,0.0331320652716,1000
6.6,5,377.573718649,0.3,622.395179819,75.893377934,0.040610664477,0.0311015320477,1000
6.65,5,373.818675577,0.3,626.152110612,75.1386158622,0.0377544220157,0.0292138109469,1000
6.7,5,370.100864803,0.3,629.871677438,74.3913365054,0.0351210305849,0.0274577594177,1000
6.75,5,366.419926005,0.3,633.554250814,73.651467531,0.0326915630292,0.0258231812662,1000
6.8,5,362.775501588,0.3,637.200197671,72.9189371463,0.0304488200424,0.0243007402641,1000
6.85,5,359.167236741,0.3,640.809881377,72.1936741101,0.0283771621811,0.022881882155,1000
6.9,5,355.594779472,0.3,644.383661764,71.4756077412,0.0264623591494,0.0215587641976,1000
6.95,5,352.057780648,0.3,647.92189516,70.7646679269,0.0246914544873,0.0203241914732,1000
7,5,348.555894024,0.3,651.424934417,70.0607851287,0.0230526440069,0.0191715592729,1000
7.05,5,345.088776263,0.3,654.893128936,69.3638903881,0.0215351665071,0.0180948009475,1000
7.1,5,341.656086957,0.3,658.326824703,68.6739153303,0.0201292054616,0.0170883406744,1000
7.15,5,338.257488638,0.3,661.726364311,67.9907921678,0.0188258005208,0.0161470506484,1000
7.2,5,334.892646792,0.3,665.092086996,67.3144537019,0.0176167677957,0.0152662122586,1000
7.25,5,331.561229857,0.3,668.424328662,66.6448333251,0.0164946280059,0.0144414808583,1000
7.3,5,328.262909233,0.3,671.723421913,65.9818650213,0.0154525416757,0.0136688537745,1000
7.35,5,324.997359277,0.3,674.989696082,65.3254833661,0.0144842506484,0.0129446412421,1000
7.4,5,321.764257302,0.3,678.223477258,64.6756235265,0.0135840252701,0.0122654399786,1000
7.45,5,318.56328357,0.3,681.425088321,64.0322212603,0.0127466166648,0.0116281091454,1000
7.5,5,315.394121285,0.3,684.594848967,63.395212914,0.0119672135811,0.0110297484663,1000
7.55,5,312.256456584,0.3,687.733075738,62.7645354222,0.0112414033509,0.0104676782988,1000
7.6,5,309.149978525,0.3,690.840082053,62.1401263043,0.0105651365453,0.00993942147149,1000
7.65,5,306.074379077,0.3,693.916178236,61.5219236634,0.00993469495874,0.00944268672355,1000
7.7,5,303.029353101,0.3,696.961671545,60.9098661826,0.00934666259113,0.00897535359399,1000
7.75,5,300.01459834,0.3,699.976866202,60.3038931226,0.00879789933057,0.00853545862746,1000
7.8,5,297.0298154,0.3,702.962063417,59.7039443186,0.00828551707221,0.00812118277385,1000
7.85,5,294.074707734,0.3,705.917561426,59.1099601769,0.0078068580346,0.00773083987212,1000
7.9,5,291.148981624,0.3,708.84365551,58.5218816712,0.00735947506016,0.00736286611912,1000
7.95,5,288.252346163,0.3,711.740638027,57.9396503392,0.00694111370771,0.00701581043373,1000
8,5,285.384513234,0.3,714.608798441,57.363208279,0.0065496959651,0.00668832563548,1000
8.05,5,282.545197492,0.3,717.448423348,56.7924981447,0.0061833054266,0.00637916036415,1000
8.1,5,279.734116343,0.3,720.259796505,56.2274631428,0.0058401737962,0.00608715167434,1000
8.15,5,276.950989925,0.3,723.043198857,55.6680470279,0.00551866859095,0.00581121824479,1000
8.2,5,274.195541084,0.3,725.798908561,55.1141940988,0.00521728193188,0.00555035414819,1000
8.25,5,271.467495356,0.3,728.527201021,54.565849194,0.00493462032044,0.00530362313217,1000
8.3,5,268.766580941,0.3,731.228348906,54.0229576876,0.00466939530889,0.00507015336673,1000
8.35,5,266.092528688,0.3,733.90262218,53.4854654848,0.00442041498183,0.00484913261764,1000
8.4,5,263.445072065,0.3,736.550288131,52.9533190177,0.00418657617432,0.00463980380892,1000
8.45,5,260.823947146,0.3,739.171611393,52.4264652409,0.00396685735901,0.00444146094097,1000
8.5,5,258.228892581,0.3,741.766853974,51.9048516269,0.00376031214142,0.0042534453339,1000
8.55,5,255.659649576,0.3,744.336275282,51.3884261619,0.00356606330826,0.00407514216849,1000
8.6,5,253.115961873,0.3,746.880132149,50.8771373412,0.00338329737904,0.00390597729953,1000
8.65,5,250.597575728,0.3,749.398678857,50.3709341647,0.0032112596157,0.00374541431875,1000
8.7,5,248.104239884,0.3,751.892167164,49.8697661328,0.00304924944963,0.00359295184627,1000
8.75,5,245.635705553,0.3,754.360846326,49.3735832413,0.00289661628891,0.00344812103182,1000
8.8,5,243.191726392,0.3,756.804963125,48.8823359776,0.00275275567232,0.00331048324821,1000
8.85,5,240.772058481,0.3,759.224761891,48.3959753157,0.00261710573966,0.00317962796122,1000
8.9,5,238.376460303,0.3,761.620484526,47.9144527123,0.00248914399081,0.00305517076168,1000
8.95,5,236.004692717,0.3,763.992370532,47.4377201018,0.00236838430841,0.00293675154626,1000
9,5,233.656518941,0.3,766.340657026,46.9657298925,0.00225437422146,0.00282403283519,1000
9.05,5,231.331704528,0.3,768.665578774,46.4984349617,0.00214669238909,0.00271669821574,1000
9.1,5,229.030017342,0.3,770.967368207,46.0357886516,0.0020449462857,0.00261445090145,1000
9.15,5,226.751227543,0.3,773.246255445,45.5777447649,0.00194877007037,0.00251701239793,1000
9.2,5,224.495107556,0.3,775.502468323,45.1242575604,0.00185782262492,0.00242412126669,1000
9.25,5,222.261432057,0.3,777.736232411,44.6752817487,0.00177178574648,0.00233553197936,1000
9.3,5,220.049977951,0.3,779.947771035,44.2307724881,0.00169036248162,0.00225101385528,1000
9.35,5,217.860524346,0.3,782.137305304,43.7906853802,0.00161327559017,0.00217035007577,1000
9.4,5,215.692852536,0.3,784.305054127,43.3549764657,0.0015402661282,0.00209333676936,1000
9.45,5,213.54674598,0.3,786.451234238,42.9236022202,0.00147109214002,0.00201978216236,1000
9.5,5,211.421990278,0.3,788.576060216,42.4965195501,0.00140552745065,0.00194950578983,1000
9.55,5,209.318373157,0.3,790.679744505,42.0736857882,0.00134336055016,0.00188233776232,1000
9.6,5,207.235684442,0.3,792.76249744,41.6550586901,0.0012843935628,0.00181811808418,1000
9.65,5,205.173716043,0.3,794.824527261,41.2405964296,0.00122844129378,0.00175669601949,1000
9.7,5,203.13226193,0.3,796.866040141,40.8302575952,0.00117533034761,0.00169792950211,1000
9.75,5,201.111118115,0.3,798.8872402,40.4240011853,0.00112489831233,0.0016416845865,1000
9.8,5,199.110082635,0.3,800.88832953,40.0217866052,0.00107699300416,0.00158783493629,1000
9.85,5,197.128955525,0.3,802.869508214,39.6235736623,0.00103147176812,0.00153626134788,1000
9.9,5,195.167538807,0.3,804.830974342,39.2293225628,0.00098820082992,0.00148685130639,1000
9.95,5,193.225636464,0.3,806.772924037,38.8389939075,0.000947054695247,0.00143949857162,1000
10,5,191.303054426,0.3,808.695551471,38.4525486878,0.000907915592769,0.00139410279198,1000
10.05,5,189.399600545,0.3,810.599048886,38.0699482824,0.000870672957398,0.00135056914411,1000
10.1,5,187.515084584,0.3,812.483606608,37.6911544531,0.000835222950748,0.00130880799658,1000
10.15,5,185.64931819,0.3,814.349413075,37.3161293412,0.000801468015921,0.00126873459578,1000
10.2,5,183.802114883,0.3,816.196654848,36.9448354636,0.000769316464004,0.00123026877258,1000
10.25,5,181.973290031,0.3,818.025516634,36.5772357096,0.000738682089863,0.00119333466809,1000
10.3,5,180.162660839,0.3,819.836181301,36.2132933367,0.00070948381502,0.00115786047734,1000
10.35,5,178.370046323,0.3,821.628829899,35.8529719672,0.000681645355571,0.00112377820956,1000
10.4,5,176.595267298,0.3,823.403641678,35.4962355847,0.000655094913279,0.00109102346389,1000
10.45,5,174.83814636,0.3,825.160794105,35.1430485305,0.000629764888106,0.00105953521949,1000
10.5,5,173.098507864,0.3,826.90046288,34.7933754999,0.000605591610598,0.00102925563896,1000
10.55,5,171.376177913,0.3,828.622821957,34.4471815392,0.000582515092659,0.00100012988433,1000
10.6,5,169.670984335,0.3,830.328043559,34.1044320415,0.000560478795359,0.000972105944558,1000
10.65,5,167.982756669,0.3,832.016298196,33.765092744,0.000539429412543,0.000945134473931,1000
10.7,5,166.311326149,0.3,833.687754682,33.4291297241,0.000519316669076,0.000919168640477,1000
10.75,5,164.656525684,0.3,835.342580152,33.0965093966,0.000500093132676,0.000894163983843,1000
10.8,5,163.018189844,0.3,836.980940078,32.7671985095,0.000481714038353,0.000870078281926,1000
10.85,5,161.396154844,0.3,838.602998285,32.4411641417,0.000464137124553,0.000846871425698,1000
10.9,5,159.790258525,0.3,840.20891697,32.118373699,0.000447322480166,0.00082450530169,1000
10.95,5,158.200340341,0.3,841.798856715,31.7987949111,0.000431232401637,0.000802943681608,1000
11,5,156.626241341,0.3,843.372976507,31.4823958287,0.000415831259455,0.000782152118635,1000
11.05,5,155.067804154,0.3,844.931433748,31.1691448199,0.000401085373365,0.000762097849967,1000
11.1,5,153.524872974,0.3,846.474384276,30.859010567,0.000386962895704,0.000742749705182,1000
11.15,5,151.997293543,0.3,848.001982379,30.551962064,0.000373433702272,0.000724078020068,1000
11.2,5,150.484913136,0.3,849.51438081,30.2479686129,0.000360469290238,0.000706054555556,1000
11.25,5,148.987580547,0.3,851.011730801,29.9469998208,0.000348042682582,0.000688652421427,1000
11.3,5,147.505146073,0.3,852.494182081,29.6490255972,0.00033612833863,0.000671846004496,1000
11.35,5,146.037461501,0.3,853.961882888,29.3540161506,0.000324702070268,0.000655610900982,1000
11.4,5,144.584380089,0.3,855.414979988,29.0619419856,0.000313740963439,0.00063992385281,1000
11.45,5,143.145756555,0.3,856.853618683,28.7727739003,0.000303223304579,0.000624762687581,1000
11.5,5,141.721447062,0.3,858.277942832,28.486482983,0.000293128511644,0.000610106261999,1000
11.55,5,140.311309203,0.3,859.688094862,28.2030406095,0.000283437069437,0.000595934408527,1000
11.6,5,138.915201988,0.3,861.084215784,27.9224184402,0.000274130468933,0.000582227885081,1000
11.65,5,137.532985827,0.3,862.466445205,27.6445884174,0.000265191150342,0.000568968327564,1000
11.7,5,136.164522519,0.3,863.834921343,27.3695227624,0.000256602449671,0.00055613820508,1000
11.75,5,134.809675237,0.3,865.189781042,27.0971939726,0.000248348548539,0.000543720777653,1000
11.8,5,133.468308517,0.3,866.531159783,26.8275748189,0.000240414427042,0.000531700056301,1000
11.85,5,132.140288239,0.3,867.8591917,26.5606383433,0.000232785819471,0.000520060765327,1000
11.9,5,130.825481619,0.3,869.174009593,26.2963578555,0.000225449172688,0.000508788306693,1000
11.95,5,129.523757192,0.3,870.475744939,26.034706931,0.000218391607,0.000497868726343,1000
12,5,128.234984802,0.3,871.76452791,25.7756594077,0.000211600879361,0.000487288682375,1000
12.05,5,126.959035586,0.3,873.040487379,25.5191893841,0.000205065348752,0.000477035414937,1000
12.1,5,125.695781964,0.3,874.30375094,25.265271216,0.000198773943617,0.000467096717757,1000
12.15,5,124.445097624,0.3,875.554444915,25.0138795145,0.000192716131199,0.000457460911197,1000
12.2,5,123.206857511,0.3,876.792694373,24.7649891431,0.000186881888676,0.000448116816763,1000
12.25,5,121.980937813,0.3,878.018623133,24.5185752153,0.000181261675977,0.000439053732964,1000
12.3,5,120.767215951,0.3,879.232353788,24.2746130921,0.000175846410167,0.000430261412456,1000
12.35,5,119.565570563,0.3,880.434007707,24.0330783797,0.000170627441318,0.00042173004039,1000
12.4,5,118.375881497,0.3,881.623705053,23.7939469269,0.000165596529756,0.000413450213902,1000
12.45,5,117.198029793,0.3,882.801564794,23.5571948226,0.000160745824612,0.000405412922671,1000
12.5,5,116.031897676,0.3,883.967704714,23.3227983937,0.000156067843593,0.000397609530492,1000
12.55,5,114.877368544,0.3,885.122241424,23.0907342026,0.000151555453896,0.000390031757797,1000
12.6,5,113.734326952,0.3,886.265290376,22.8609790446,0.000147201854201,0.000382671665087,1000
12.65,5,112.602658605,0.3,887.396965874,22.6335099461,0.000143000557665,0.000375521637204,1000
12.7,5,111.482250344,0.3,888.517381082,22.4083041619,0.000138945375878,0.00036857436841,1000
12.75,5,110.372990137,0.3,889.62664804,22.185339173,0.000135030403698,0.000361822848225,1000
12.8,5,109.274767065,0.3,890.724877675,21.9645926845,0.000131250004935,0.000355260347978,1000
12.85,5,108.187471314,0.3,891.812179806,21.7460426234,0.000127598798817,0.000348880408037,1000
12.9,5,107.11099416,0.3,892.888663163,21.5296671359,0.000124071647197,0.000342676825677,1000
12.95,5,106.045227964,0.3,893.954435392,21.3154445861,0.000120663642467,0.000336643643554,1000
13,5,104.990066155,0.3,895.00960307,21.1033535529,0.000117370096115,0.000330775138748,1000
13.05,5,103.945403223,0.3,896.054271711,20.8933728285,0.000114186527914,0.000325065812352,1000
13.1,5,102.911134708,0.3,897.088545782,20.6854814161,0.000111108655682,0.000319510379568,1000
13.15,5,101.887157188,0.3,898.112528708,20.4796585277,0.000108132385597,0.000314103760289,1000
13.2,5,100.873368272,0.3,899.126322887,20.2758835821,0.000105253803031,0.000308841070137,1000
13.25,5,99.8696665849,0.3,900.130029697,20.0741362029,0.000102469163861,0.000303717611944,1000
13.3,5,98.8759517628,0.3,901.123749508,19.8743962165,0.0000997748862495,0.000298728867631,1000
13.35,5,97.8921244387,0.3,902.107581691,19.6766436497,0.000097167542852,0.000293870490489,1000
13.4,5,96.9180862345,0.3,903.081624627,19.4808587283,0.0000946438534353,0.000289138297817,1000
13.45,5,95.9537397508,0.3,904.045975721,19.2870218748,0.0000922006778795,0.000284528263923,1000
13.5,5,94.9989885572,0.3,905.000731406,19.0951137062,0.0000898350095446,0.000280036513446,1000
13.55,5,94.0537371828,0.3,905.945987158,18.9051150327,0.0000875439689796,0.000275659314997,1000
13.6,5,93.1178911063,0.3,906.881837501,18.7170068551,0.0000853247979553,0.000271393075099,1000
13.65,5,92.1913567469,0.3,907.808376019,18.5307703634,0.0000831748538036,0.000267234332409,1000
13.7,5,91.2740414547,0.3,908.725695366,18.3463869347,0.0000810916040456,0.000263179752207,1000
13.75,5,90.3658535018,0.3,909.633887272,18.1638381314,0.000079072621292,0.000259226121142,1000
13.8,5,89.4667020726,0.3,910.533042557,17.9831056992,0.0000771155784025,0.000255370342222,1000
13.85,5,88.5764972552,0.3,911.423251135,17.8041715656,0.0000752182438884,0.000251609430028,1000
13.9,5,87.6951500322,0.3,912.304602027,17.6270178378,0.000073378477546,0.00024794050615,1000
13.95,5,86.8225722719,0.3,913.177183367,17.451626801,0.0000715942263083,0.000244360794835,1000
14,5,85.9586767192,0.3,914.041082413,17.2779809167,0.0000698635203024,0.00024086761882,1000
14.05,5,85.1033769874,0.3,914.896385554,17.1060628209,0.0000681844691028,0.000237458395365,1000
14.1,5,84.2565875491,0.3,915.74317832,16.9358553222,0.0000665552581691,0.000234130632456,1000
14.15,5,83.4182237278,0.3,916.58154539,16.7673414005,0.0000649741454585,0.000230881925183,1000
14.2,5,82.5882016895,0.3,917.411570601,16.6005042048,0.0000634394582039,0.000227709952273,1000
14.25,5,81.7664384344,0.3,918.233336953,16.4353270519,0.0000619495898493,0.000224612472781,1000
14.3,5,80.9528517883,0.3,919.046926624,16.2717934245,0.0000605029971328,0.000221587322924,1000
14.35,5,80.1473603947,0.3,919.852420973,16.1098869698,0.0000590981973116,0.000218632413058,1000
14.4,5,79.3498837065,0.3,920.649900548,15.9495914973,0.0000577337655191,0.000215745724782,1000
14.45,5,78.560341978,0.3,921.439445097,15.7908909782,0.0000564083322494,0.00021292530817,1000
14.5,5,77.778656257,0.3,922.221133574,15.6337695425,0.0000551205809615,0.000210169279122,1000
14.55,5,77.0047483765,0.3,922.995044148,15.4782114786,0.0000538692457968,0.000207475816832,1000
14.6,5,76.2385409476,0.3,923.761254209,15.3242012311,0.0000526531094048,0.000204843161362,1000
14.65,5,75.4799573512,0.3,924.519840379,15.1717233992,0.0000514710008712,0.000202269611318,1000
14.7,5,74.7289217305,0.3,925.270878516,15.0207627355,0.0000503217937428,0.000199753521631,1000
14.75,5,73.9853589835,0.3,926.014443723,14.8713041442,0.0000492044041451,0.000197293301424,1000
14.8,5,73.2491947554,0.3,926.750610357,14.7233326797,0.0000481177889863,0.000194887411974,1000
14.85,5,72.5203554312,0.3,927.479452034,14.5768335453,0.0000470609442461,0.000192534364762,1000
14.9,5,71.7987681283,0.3,928.201041639,14.4317920912,0.0000460329033418,0.000190232719595,1000
14.95,5,71.0843606892,0.3,928.91545133,14.2881938137,0.0000450327355701,0.000187981082817,1000
15,5,70.3770616746,0.3,929.622752547,14.146024353,0.0000440595446203,0.000185778105586,1000
