Seconds,converter1,flow1,flow2,stock1,stock2
0,9.49,4.745,0.004995004995,2,1000
0.25,9.28637114325,3.80410927022,0.00499500811065,2.95102731756,999.998751248
0.5,8.97948298086,2.76851267451,0.00499501434196,3.64315548618,999.997502494
0.75,8.76066699552,2.2580874772,0.0049950205733,4.20767735548,999.996253739
1,8.54781120498,1.94764980766,0.00499502680465,4.6945898074,999.995004983
1.25,8.34208993907,1.71913471171,0.00499503303604,5.12437348532,999.993756224
1.5,8.18826806558,1.55317115442,0.00499503926744,5.51266627393,999.992507464
1.75,8.08276669343,1.42915302675,0.00499504549887,5.86995453062,999.991258703
2,7.99540711938,1.33155654538,0.00499505173032,6.20284366696,999.99000994
2.25,7.92144742949,1.25131921647,0.00499505796179,6.51567347108,999.988761176
2.5,7.85772866178,1.18386046763,0.00499506419329,6.81163858799,999.98751241
2.75,7.80021332922,1.12608432609,0.00499507042481,7.09315966951,999.986263642
3,7.74597359872,1.07540184798,0.00499507665635,7.36201013151,999.985014873
3.25,7.69757753468,1.03076796494,0.00499508288792,7.61970212274,999.983766102
3.5,7.6540294225,0.991197001161,0.00499508911951,7.86750137303,999.98251733
3.75,7.6145577219,0.955803647988,0.00499509535113,8.10645228503,999.981268556
4,7.57855381362,0.923904642782,0.00499510158276,8.33742844572,999.980019781
4.25,7.54553008914,0.894963191596,0.00499510781442,8.56116924362,999.978771004
4.5,7.51509054236,0.868550985507,0.00499511404611,8.77830699,999.977522225
4.75,7.48690967378,0.844321590051,0.00499512027781,8.98938738751,999.976273445
5,7.46071706059,0.821991393198,0.00499512650955,9.19488523581,999.975024663
5.25,7.4362858744,0.801325700626,0.0049951327413,9.39521666097,999.97377588
5.5,7.41342420358,0.78212841271,0.00499513897308,9.59074876415,999.972527096
5.75,7.39196840341,0.76423424232,0.00499514520488,9.78180732473,999.971278309
6,7.37389444517,0.747602479002,0.0049951514367,9.96870794448,999.970029521
6.25,7.35705548679,0.732130320815,0.00499515766855,10.1517405247,999.968780732
6.5,7.34113021676,0.717577015277,0.00499516390042,10.3311347785,999.967531941
6.75,7.32603782436,0.70385218093,0.00499517013231,10.5070978237,999.966283148
7,7.31170722843,0.690880342006,0.00499517636423,10.6798179092,999.965034354
7.25,7.29807561543,0.678595293069,0.00499518259617,10.8494667325,999.963785559
7.5,7.28508723795,0.666938686404,0.00499518882813,11.0162014041,999.962536761
7.75,7.27269242057,0.655858873666,0.00499519506012,11.1801661225,999.961287963
8,7.26084673191,0.645309949448,0.00499520129213,11.3414936099,999.960039162
8.25,7.24951029092,0.635250956471,0.00499520752416,11.500306349,999.958790361
8.5,7.23864718251,0.625645221108,0.00499521375622,11.6567176543,999.957541557
8.75,7.2282249625,0.616459794712,0.0049952199883,11.810832603,999.956292752
9,7.21821423631,0.60766498143,0.00499522622041,11.9627488483,999.955043946
9.25,7.20858829866,0.599233937106,0.00499523245253,12.1125573326,999.953795137
9.5,7.19932282411,0.591142326975,0.00499523868468,12.2603429143,999.952546328
9.75,7.19039560011,0.583368032239,0.00499524491686,12.4061849224,999.951297517
10,7.18178629587,0.575890897476,0.00499525114905,12.5501576468,999.950048704
10.25,7.17347626154,0.568692512347,0.00499525738127,12.6923307748,999.948799889
10.5,7.16544835291,0.561756022234,0.00499526361352,12.8327697804,999.947551073
10.75,7.15768677814,0.555065963372,0.00499526984579,12.9715362712,999.946302256
11,7.15017696308,0.548608118836,0.00499527607808,13.108688301,999.945053437
11.25,7.14290543274,0.542369392329,0.00499528231039,13.244280649,999.943804616
11.5,7.13585970658,0.536337697227,0.00499528854273,13.3783650733,999.942555794
11.75,7.12902820572,0.530501858757,0.00499529477509,13.510990538,999.941306971
12,7.12240017062,0.524851527499,0.00499530100747,13.6422034199,999.940058145
12.25,7.11596558773,0.51937710271,0.00499530723988,13.7720476956,999.938809319
12.5,7.10971512405,0.514069664168,0.00499531347231,13.9005651116,999.93756049
12.75,7.10364006861,0.508920911446,0.00499531970476,14.0277953395,999.93631166
13,7.09773227993,0.503923109668,0.00499532593724,14.1537761169,999.935062829
13.25,7.09198413889,0.499069040966,0.00499533216974,14.2785433772,999.933813996
13.5,7.08638850627,0.49435196092,0.00499533840226,14.4021313674,999.932565161
13.75,7.08093868443,0.4897655594,0.00499534463481,14.5245727572,999.931316325
14,7.0756283827,0.485303925298,0.00499535086738,14.6458987386,999.930067487
14.25,7.07045168596,0.480961514688,0.00499535709997,14.7661391172,999.928818648
14.5,7.06540302629,0.476733122042,0.00499536333259,14.8853223977,999.927569807
14.75,7.06047715704,0.472613854148,0.00499536956523,15.0034758613,999.926320965
15,7.05566912933,0.46859910645,0.00499537579789,15.1206256379,999.925072121
15.25,7.05097427059,0.464684541537,0.00499538203058,15.2367967733,999.923823275
15.5,7.04638816497,0.460866069553,0.00499538826329,15.3520132907,999.922574428
15.75,7.04190663543,0.457139830344,0.00499539449602,15.4662982482,999.92132558
16,7.03752572732,0.453502177144,0.00499540072878,15.5796737925,999.920076729
16.25,7.03324169336,0.449949661659,0.00499540696156,15.6921612079,999.918827878
16.5,7.02905097979,0.446479020403,0.00499541319437,15.803780963,999.917579024
16.75,7.02495021368,0.443087162167,0.00499541942719,15.9145527536,999.91633017
17,7.02093619123,0.439771156507,0.00499542566004,16.0244955427,999.915081313
17.25,7.01700586699,0.436528223166,0.00499543189292,16.1336275985,999.913832455
17.5,7.01315634388,0.433355722322,0.00499543812581,16.2419665291,999.912583596
17.75,7.00944961005,0.430251805682,0.00499544435873,16.3495294805,999.911334735
18,7.00614248429,0.427227895656,0.00499545059168,16.4563364544,999.910085872
18.25,7.00290042347,0.424275169872,0.00499545682464,16.5624052469,999.908837008
18.5,6.99972130337,0.421382654444,0.00499546305763,16.6677509105,999.907588142
18.75,6.99660309606,0.418548333547,0.00499546929065,16.7723879939,999.906339275
19,6.99354386435,0.415770284507,0.00499547552368,16.876330565,999.905090406
19.25,6.99054175658,0.41304667234,0.00499548175674,16.9795922331,999.903841535
19.5,6.98759500185,0.410375744677,0.00499548798983,17.0821861693,999.902592663
19.75,6.98470190555,0.40775582705,0.00499549422294,17.184125126,999.90134379
20,6.98186084511,0.405185318493,0.00499550045607,17.2854214557,999.900094915
20.25,6.97907026615,0.402662687454,0.00499550668922,17.3860871275,999.898846038
20.5,6.97632867883,0.400186467969,0.0049955129224,17.4861337445,999.89759716
20.75,6.9736346544,0.3977552561,0.0049955191556,17.5855725585,999.89634828
21,6.97098682204,0.395367706604,0.00499552538882,17.6844144852,999.895099399
21.25,6.96838386585,0.393022529814,0.00499553162207,17.7826701176,999.893850516
21.5,6.96582452205,0.390718488727,0.00499553785534,17.8803497398,999.892601631
21.75,6.96330757634,0.38845439627,0.00499554408863,17.9774633389,999.891352745
22,6.96083186147,0.386229112738,0.00499555032195,18.0740206171,999.890103858
22.25,6.95839625483,0.384041543398,0.00499555655529,18.1700310029,999.888854968
22.5,6.95599967637,0.381890636232,0.00499556278865,18.265503662,999.887606078
22.75,6.95364108648,0.379775379815,0.00499556902204,18.3604475069,999.886357185
23,6.95131948408,0.377694801331,0.00499557525545,18.4548712073,999.885108292
23.25,6.94903390479,0.375647964694,0.00499558148888,18.5487831984,999.883859396
23.5,6.94678341923,0.37363396879,0.00499558772234,18.6421916906,999.882610499
23.75,6.94456713137,0.37165194581,0.00499559395582,18.7351046771,999.881361601
24,6.94238417702,0.369701059689,0.00499560018932,18.827529942,999.880112701
24.25,6.94023372242,0.367780504631,0.00499560642285,18.9194750682,999.878863799
24.5,6.93811496279,0.365889503709,0.0049956126564,19.0109474441,999.877614896
24.75,6.93602712113,0.364027307555,0.00499561888997,19.101954271,999.876365991
25,6.93396944694,0.362193193114,0.00499562512357,19.1925025693,999.875117085
25.25,6.93194121509,0.360386462468,0.00499563135719,19.2825991849,999.873868177
25.5,6.92994172471,0.358606441727,0.00499563759083,19.3722507953,999.872619268
25.75,6.92797029819,0.356852479973,0.0049956438245,19.4614639153,999.871370357
26,6.92602628014,0.355123948265,0.00499565005819,19.5502449024,999.870121444
26.25,6.9241090365,0.353420238694,0.0049956562919,19.638599962,999.86887253
26.5,6.92221795364,0.351740763491,0.00499566252564,19.7265351529,999.867623615
26.75,6.92035243752,0.35008495417,0.0049956687594,19.8140563915,999.866374697
27,6.91851191287,0.348452260732,0.00499567499319,19.9011694566,999.865125779
27.25,6.9166958225,0.346842150892,0.00499568122699,19.9878799944,999.863876858
27.5,6.91490362647,0.345254109358,0.00499568746082,20.0741935217,999.862627937
27.75,6.91313480152,0.343687637134,0.00499569369468,20.160115431,999.861379013
28,6.91138884031,0.342142250873,0.00499569992855,20.2456509937,999.860130088
28.25,6.90966525088,0.34061748224,0.00499570616245,20.3308053643,999.858881162
28.5,6.907963556,0.33911287733,0.00499571239638,20.4155835836,999.857632233
28.75,6.90628329264,0.337627996091,0.00499571863032,20.4999905826,999.856383304
29,6.90462401141,0.336162411796,0.00499572486429,20.5840311856,999.855134373
29.25,6.90298527607,0.334715710518,0.00499573109829,20.6677101132,999.85388544
29.5,6.90136666301,0.333287490651,0.0049957373323,20.7510319859,999.852636505
29.75,6.89976776078,0.331877362433,0.00499574356634,20.8340013265,999.85138757
30,6.8981881697,0.33048494751,0.00499574980041,20.9166225634,999.850138632
30.25,6.89662750135,0.329109878504,0.0049957560345,20.998900033,999.848889693
30.5,6.89508537822,0.327751798611,0.00499576226861,21.0808379826,999.847640753
30.75,6.89356143329,0.326410361208,0.00499576850274,21.1624405729,999.84639181
31,6.89205530968,0.32508522949,0.0049957747369,21.2437118803,999.845142867
31.25,6.89056666029,0.32377607611,0.00499578097108,21.3246558993,999.843893922
31.5,6.88909514741,0.322482582842,0.00499578720528,21.405276545,999.842644975
31.75,6.88764044247,0.321204440258,0.00499579343951,21.4855776551,999.841396026
32,6.88620222566,0.319941347415,0.00499579967376,21.565562992,999.840147076
32.25,6.88478018568,0.318693011562,0.00499580590803,21.6452362449,999.838898125
32.5,6.88337401941,0.317459147853,0.00499581214233,21.7246010318,999.837649172
32.75,6.88198343165,0.316239479076,0.00499581837665,21.8036609016,999.836400217
33,6.88060813488,0.315033735391,0.00499582461099,21.8824193354,999.835151261
33.25,6.87924784897,0.313841654082,0.00499583084536,21.960879749,999.833902303
33.5,6.87790230093,0.312662979315,0.00499583707975,22.0390454938,999.832653344
33.75,6.87657122472,0.311497461908,0.00499584331416,22.1169198593,999.831404383
34,6.87525436101,0.310344859112,0.0049958495486,22.194506074,999.830155421
34.25,6.87395145691,0.309204934398,0.00499585578306,22.2718073076,999.828906457
34.5,6.87266226586,0.308077457255,0.00499586201754,22.3488266719,999.827657492
34.75,6.87138654734,0.306962202993,0.00499586825205,22.4255672227,999.826408524
35,6.87012406673,0.305858952554,0.00499587448658,22.5020319608,999.825159556
35.25,6.86887459512,0.304767492338,0.00499588072114,22.5782238339,999.823910586
35.5,6.8676379091,0.303687614021,0.00499588695571,22.6541457374,999.822661614
35.75,6.86641379063,0.302619114397,0.00499589319031,22.729800516,999.821412641
36,6.86520202686,0.301561795211,0.00499589942494,22.8051909648,999.820163666
36.25,6.86400240998,0.300515463008,0.00499590565958,22.8803198306,999.818914689
36.5,6.86281473703,0.299479928986,0.00499591189425,22.9551898128,999.817665711
36.75,6.86163880981,0.298455008849,0.00499591812895,23.029803565,999.816416732
37,6.8604744347,0.297440522675,0.00499592436367,23.1041636957,999.815167751
37.25,6.85932142253,0.296436294777,0.00499593059841,23.1782727694,999.813918768
37.5,6.85817958847,0.295442153583,0.00499593683317,23.2521333078,999.812669784
37.75,6.85704875188,0.294457931509,0.00499594306796,23.3257477907,999.811420798
38,6.85592873618,0.293483464838,0.00499594930277,23.3991186569,999.810171811
38.25,6.85481936876,0.292518593612,0.0049959555376,23.4722483053,999.808922822
38.5,6.85372048087,0.291563161518,0.00499596177246,23.5451390957,999.807673831
38.75,6.85263190746,0.290617015783,0.00499596800734,23.6177933496,999.806424839
39,6.85155348714,0.289680007072,0.00499597424224,23.6902133514,999.805175846
39.25,6.85048506203,0.288751989388,0.00499598047717,23.7624013487,999.803926851
39.5,6.84942647768,0.287832819977,0.00499598671212,23.8343595537,999.802677854
39.75,6.84837758297,0.286922359237,0.0049959929471,23.9060901435,999.801428856
40,6.84733823002,0.286020470628,0.00499599918209,23.9775952612,999.800179856
40.25,6.84630827412,0.285127020589,0.00499600541711,24.0488770163,999.798930855
40.5,6.8452875736,0.28424187845,0.00499601165216,24.1199374859,999.797681852
40.75,6.84427598978,0.283364916355,0.00499601788722,24.190778715,999.796432847
41,6.84327338689,0.282496009187,0.00499602412231,24.2614027173,999.795183841
41.25,6.84227963197,0.281635034487,0.00499603035743,24.331811476,999.793934834
41.5,6.84129459483,0.280781872388,0.00499603659257,24.4020069441,999.792685825
41.75,6.84031814793,0.27993640554,0.00499604282773,24.4719910454,999.791436814
42,6.83935016635,0.279098519048,0.00499604906291,24.5417656752,999.790187802
42.25,6.83839052771,0.278268100399,0.00499605529812,24.6113327003,999.788938788
42.5,6.8374391121,0.277445039406,0.00499606153335,24.6806939601,999.787689772
42.75,6.836495802,0.276629228142,0.0049960677686,24.7498512672,999.786440755
43,6.83556048226,0.275820560883,0.00499607400388,24.8188064074,999.785191737
43.25,6.83463304,0.27501893405,0.00499608023918,24.8875611409,999.783942717
43.5,6.83371336458,0.274224246154,0.00499608647451,24.9561172025,999.782693695
43.75,6.83280134751,0.273436397738,0.00499609270985,25.0244763019,999.781444672
44,6.83189688245,0.272655291333,0.00499609894522,25.0926401247,999.780195647
44.25,6.83099986508,0.271880831399,0.00499610518062,25.1606103326,999.778946621
44.5,6.83011019312,0.271112924282,0.00499611141604,25.2283885636,999.777697593
44.75,6.82922776626,0.270351478163,0.00499611765148,25.2959764332,999.776448564
45,6.82835248609,0.269596403014,0.00499612388694,25.3633755339,999.775199533
45.25,6.82748425605,0.268847610552,0.00499613012243,25.4305874366,999.7739505
45.5,6.82662298145,0.268105014196,0.00499613635794,25.4976136901,999.772701466
45.75,6.82576856932,0.267368529028,0.00499614259347,25.5644558224,999.771452431
46,6.82492092848,0.266638071746,0.00499614882903,25.6311153403,999.770203393
46.25,6.8240799694,0.265913560631,0.00499615506461,25.6975937305,999.768954355
46.5,6.82324560423,0.265194915505,0.00499616130022,25.7638924594,999.767705314
46.75,6.82241774672,0.264482057695,0.00499616753584,25.8300129738,999.766456272
47,6.82159631221,0.263774909995,0.00499617377149,25.8959567013,999.765207229
47.25,6.82078121756,0.263073396634,0.00499618000717,25.9617250504,999.763958184
47.5,6.81997238116,0.262377443241,0.00499618624287,26.0273194112,999.762709137
47.75,6.81916972283,0.261686976811,0.00499619247859,26.0927411554,999.761460089
48,6.81837316387,0.261001925673,0.00499619871433,26.1579916369,999.76021104
48.25,6.81758262695,0.26032221946,0.0049962049501,26.2230721917,999.758961988
48.5,6.81679803612,0.259647789076,0.00499621118589,26.287984139,999.757712936
48.75,6.81601931676,0.258978566671,0.0049962174217,26.3527287807,999.756463881
49,6.81524639558,0.258314485608,0.00499622365754,26.4173074021,999.755214825
49.25,6.81447920055,0.257655480437,0.0049962298934,26.4817212722,999.753965768
49.5,6.81371766089,0.25700148687,0.00499623612929,26.5459716439,999.752716709
49.75,6.81296170705,0.256352441751,0.0049962423652,26.6100597543,999.751467648
50,6.81221127068,0.255708283032,0.00499624860113,26.6739868251,999.750218586
50.25,6.81146628459,0.255068949748,0.00499625483708,26.7377540625,999.748969522
50.5,6.81072668273,0.254434381996,0.00499626107306,26.801362658,999.747720457
50.75,6.80999240018,0.253804520904,0.00499626730906,26.8648137883,999.74647139
51,6.80926337311,0.253179308617,0.00499627354508,26.9281086154,999.745222322
51.25,6.80853953876,0.252558688267,0.00499627978113,26.9912482875,999.743973252
51.5,6.80782083541,0.251942603957,0.0049962860172,27.0542339385,999.74272418
51.75,6.80710720239,0.251331000736,0.0049962922533,27.1170666886,999.741475107
52,6.80639857999,0.25072382458,0.00499629848942,27.1797476448,999.740226033
52.25,6.80569490953,0.250121022374,0.00499630472556,27.2422779004,999.738976957
52.5,6.80499613325,0.249522541889,0.00499631096172,27.3046585359,999.737727879
52.75,6.80430219437,0.248928331765,0.00499631719791,27.3668906188,999.736478799
53,6.803613037,0.248338341492,0.00499632343412,27.4289752042,999.735229719
53.25,6.80292860617,0.247752521391,0.00499632967036,27.4909133345,999.733980636
53.5,6.80224884778,0.247170822599,0.00499633590661,27.5527060402,999.732731552
53.75,6.80157370861,0.246593197051,0.0049963421429,27.6143543394,999.731482467
54,6.80090313627,0.246019597461,0.0049963483792,27.6758592388,999.73023338
54.25,6.80023707923,0.24544997731,0.00499635461553,27.7372217331,999.728984291
54.5,6.79957548674,0.244884290824,0.00499636085188,27.7984428058,999.727735201
54.75,6.79891830887,0.244322492967,0.00499636708825,27.8595234291,999.726486109
55,6.79826549645,0.243764539417,0.00499637332465,27.9204645639,999.725237016
55.25,6.7976170011,0.243210386559,0.00499637956107,27.9812671606,999.723987921
55.5,6.79697277518,0.242659991466,0.00499638579752,28.0419321584,999.722738824
55.75,6.79633277177,0.242113311886,0.00499639203399,28.1024604864,999.721489726
56,6.79569694469,0.241570306229,0.00499639827048,28.162853063,999.720240627
56.25,6.79506524846,0.241030933555,0.00499640450699,28.2231107964,999.718991526
56.5,6.79443763829,0.240495153558,0.00499641074353,28.2832345847,999.717742423
56.75,6.79381407008,0.239962926556,0.00499641698009,28.3432253164,999.716493319
57,6.79319450037,0.239434213476,0.00499642321668,28.4030838698,999.715244213
57.25,6.79257888639,0.238908975845,0.00499642945329,28.4628111137,999.713995105
57.5,6.79196718598,0.238387175778,0.00499643568992,28.5224079077,999.712745997
57.75,6.79135935762,0.237868775963,0.00499644192657,28.5818751016,999.711496886
58,6.79075536039,0.237353739655,0.00499644816325,28.6412135366,999.710247774
58.25,6.79015515401,0.236842030659,0.00499645439995,28.7004240442,999.70899866
58.5,6.78955869877,0.236333613325,0.00499646063668,28.7595074476,999.707749545
58.75,6.78896595553,0.235828452536,0.00499646687343,28.8184645607,999.706500429
59,6.78837688573,0.235326513695,0.0049964731102,28.8772961891,999.70525131
59.25,6.78779145139,0.234827762717,0.00499647934699,28.9360031298,999.70400219
59.5,6.78720961506,0.234332166022,0.00499648558381,28.9945861713,999.702753069
59.75,6.78663133982,0.233839690522,0.00499649182065,29.0530460939,999.701503946
60,6.78605658931,0.23335030361,0.00499649805752,29.1113836698,999.700254822
60.25,6.78548532766,0.232863973158,0.00499650429441,29.1695996631,999.699005696
60.5,6.78491751952,0.2323806675,0.00499651053132,29.22769483,999.697756568
60.75,6.78435313005,0.23190035543,0.00499651676826,29.2856699189,999.696507439
61,6.78379212489,0.231423006189,0.00499652300521,29.3435256704,999.695258308
61.25,6.78323447017,0.23094858946,0.0049965292422,29.4012628178,999.694009176
61.5,6.78268013249,0.230477075356,0.0049965354792,29.4588820866,999.692760042
61.75,6.78212907891,0.230008434416,0.00499654171623,29.5163841952,999.691510906
62,6.78158127697,0.229542637597,0.00499654795328,29.5737698546,999.690261769
62.25,6.78103669464,0.229079656264,0.00499655419036,29.6310397687,999.689012631
62.5,6.78049530032,0.228619462182,0.00499656042746,29.6881946342,999.687763491
62.75,6.77995706287,0.228162027514,0.00499656666458,29.7452351411,999.686514349
63,6.77942195157,0.227707324808,0.00499657290172,29.8021619723,999.685265206
63.25,6.77888993609,0.227255326994,0.00499657913889,29.858975804,999.684016061
63.5,6.77836098656,0.226806007376,0.00499658537609,29.9156773059,999.682766915
63.75,6.77783507347,0.226359339624,0.0049965916133,29.9722671408,999.681517767
64,6.77731216772,0.22591529777,0.00499659785054,30.0287459652,999.680268617
64.25,6.77679224062,0.225473856201,0.0049966040878,30.0851144293,999.679019466
64.5,6.77627526383,0.22503498965,0.00499661032509,30.1413731767,999.677770314
64.75,6.77576120942,0.224598673195,0.0049966165624,30.197522845,999.67652116
65,6.7752500498,0.224164882248,0.00499662279973,30.2535640656,999.675272004
65.25,6.77474175777,0.223733592552,0.00499662903709,30.3094974637,999.674022847
65.5,6.77423630647,0.223304780177,0.00499663527446,30.3653236587,999.672773688
65.75,6.77373366939,0.222878421509,0.00499664151187,30.4210432641,999.671524527
66,6.77323382038,0.222454493249,0.00499664774929,30.4766568874,999.670275365
66.25,6.77273673363,0.222032972408,0.00499665398674,30.5321651305,999.669026202
66.5,6.77224238364,0.221613836298,0.00499666022421,30.5875685896,999.667777037
66.75,6.77175074528,0.221197062531,0.00499666646171,30.6428678552,999.66652787
67,6.7712617937,0.220782629009,0.00499667269923,30.6980635125,999.665278702
67.25,6.7707755044,0.220370513926,0.00499667893677,30.753156141,999.664029532
67.5,6.77029185318,0.219960695757,0.00499668517434,30.8081463149,999.662780361
67.75,6.76981081614,0.219553153256,0.00499669141193,30.8630346032,999.661531188
68,6.7693323697,0.219147865451,0.00499669764954,30.9178215696,999.660282014
68.25,6.76885649056,0.21874481164,0.00499670388718,30.9725077725,999.659032838
68.5,6.76838315573,0.218343971386,0.00499671012484,31.0270937654,999.65778366
68.75,6.7679123425,0.217945324512,0.00499671636252,31.0815800965,999.656534481
69,6.76744402844,0.217548851098,0.00499672260022,31.1359673093,999.655285301
69.25,6.7669781914,0.217154531476,0.00499672883795,31.1902559421,999.654036118
69.5,6.76651480952,0.216762346227,0.00499673507571,31.2444465287,999.652786935
69.75,6.76605386119,0.216372276174,0.00499674131348,31.2985395977,999.651537749
70,6.76559532506,0.215984302383,0.00499674755128,31.3525356733,999.650288562
70.25,6.76513918008,0.215598406155,0.00499675378911,31.4064352749,999.649039374
70.5,6.76468540542,0.215214569023,0.00499676002695,31.4602389171,999.647790184
70.75,6.76423398051,0.214832772751,0.00499676626482,31.5139471103,999.646540992
71,6.76378488504,0.214452999325,0.00499677250271,31.5675603601,999.645291799
71.25,6.76333809895,0.214075230956,0.00499677874063,31.6210791679,999.644042605
71.5,6.76289360241,0.213699450071,0.00499678497857,31.6745040304,999.642793408
71.75,6.76245137583,0.213325639313,0.00499679121653,31.7278354402,999.641544211
72,6.76201139985,0.212953781536,0.00499679745452,31.7810738856,999.640295011
72.25,6.76157365535,0.212583859802,0.00499680369253,31.8342198506,999.63904581
72.5,6.76113812344,0.212215857378,0.00499680993056,31.8872738149,999.637796608
72.75,6.76070478545,0.211849757732,0.00499681616862,31.9402362543,999.636547404
73,6.76027362292,0.211485544532,0.0049968224067,31.9931076405,999.635298198
73.25,6.75984461762,0.21112320164,0.0049968286448,32.0458884409,999.634048991
73.5,6.75941775152,0.210762713112,0.00499683488293,32.0985791192,999.632799782
73.75,6.75899300683,0.210404063193,0.00499684112108,32.151180135,999.631550572
74,6.75857036593,0.210047236315,0.00499684735925,32.203691944,999.63030136
74.25,6.75814981143,0.209692217092,0.00499685359745,32.2561149983,999.629052147
74.5,6.75773132614,0.209338990322,0.00499685983567,32.3084497459,999.627802932
74.75,6.75731489304,0.208987540979,0.00499686607391,32.3606966311,999.626553715
75,6.75690049535,0.208637854214,0.00499687231218,32.4128560947,999.625304497
75.25,6.75648811645,0.208289915351,0.00499687855047,32.4649285735,999.624055278
75.5,6.75607773992,0.207943709884,0.00499688478878,32.516914501,999.622806056
75.75,6.75566934952,0.207599223474,0.00499689102712,32.5688143069,999.621556834
76,6.75526292921,0.20725644195,0.00499689726548,32.6206284173,999.620307609
76.25,6.75485846311,0.206915351301,0.00499690350386,32.6723572552,999.619058383
76.5,6.75445593555,0.206575937679,0.00499690974227,32.7240012396,999.617809156
76.75,6.754055331,0.206238187394,0.0049969159807,32.7755607864,999.616559927
77,6.75365663412,0.205902086909,0.00499692221916,32.8270363082,999.615310696
77.25,6.75325982975,0.205567622845,0.00499692845763,32.8784282139,999.614061464
77.5,6.75286490289,0.205234781971,0.00499693469613,32.9297369094,999.612812231
77.75,6.75247183871,0.204903551207,0.00499694093466,32.9809627972,999.611562995
78,6.75208062253,0.204573917619,0.0049969471732,33.0321062766,999.610313759
78.25,6.75169123985,0.204245868418,0.00499695341177,33.0831677437,999.60906452
78.5,6.75130367631,0.20391939096,0.00499695965037,33.1341475914,999.60781528
78.75,6.75091791774,0.203594472739,0.00499696588899,33.1850462096,999.606566039
79,6.75053395009,0.203271101389,0.00499697212763,33.235863985,999.605316796
79.25,6.75015175948,0.202949264681,0.00499697836629,33.2866013011,999.604067551
79.5,6.74977133218,0.20262895052,0.00499698460498,33.3372585388,999.602818305
79.75,6.7493926546,0.202310146944,0.00499699084369,33.3878360755,999.601569057
80,6.74901571331,0.201992842125,0.00499699708242,33.438334286,999.600319808
80.25,6.748640495,0.20167702436,0.00499700332118,33.4887535421,999.599070557
80.5,6.74826698654,0.201362682076,0.00499700955996,33.5390942126,999.597821305
80.75,6.74789517491,0.201049803825,0.00499701579877,33.5893566636,999.596572051
81,6.74752504723,0.200738378283,0.00499702203759,33.6395412582,999.595322795
81.25,6.74715659078,0.200428394248,0.00499702827644,33.6896483567,999.594073538
81.5,6.74678979296,0.200119840639,0.00499703451532,33.7396783169,999.59282428
81.75,6.74642464128,0.199812706494,0.00499704075422,33.7896314935,999.591575019
82,6.74606112343,0.199506980968,0.00499704699314,33.8395082387,999.590325758
82.25,6.74569922719,0.19920265333,0.00499705323208,33.8893089021,999.589076494
82.5,6.74533894048,0.198899712966,0.00499705947105,33.9390338303,999.58782723
82.75,6.74498025135,0.198598149372,0.00499706571004,33.9886833677,999.586577963
83,6.74462314797,0.198297952156,0.00499707194906,34.0382578557,999.585328695
83.25,6.74426761863,0.197999111035,0.00499707818809,34.0877576335,999.584079426
83.5,6.74391365175,0.197701615836,0.00499708442715,34.1371830374,999.582830155
83.75,6.74356123586,0.197405456489,0.00499709066624,34.1865344015,999.581580882
84,6.74321035962,0.197110623032,0.00499709690535,34.2358120573,999.580331608
84.25,6.74286101178,0.196817105605,0.00499710314448,34.2850163337,999.579082332
84.5,6.74251318124,0.196524894452,0.00499710938363,34.3341475573,999.577833054
84.75,6.74216685699,0.196233979916,0.00499711562281,34.3832060523,999.576583776
85,6.74182202813,0.19594435244,0.00499712186201,34.4321921404,999.575334495
85.25,6.74147868388,0.195656002567,0.00499712810124,34.481106141,999.574085213
85.5,6.74113681358,0.195368920935,0.00499713434049,34.5299483713,999.572835929
85.75,6.74079640665,0.195083098279,0.00499714057976,34.5787191458,999.571586644
86,6.74045745263,0.194798525428,0.00499714681905,34.6274187772,999.570337358
86.25,6.74011994116,0.194515193304,0.00499715305837,34.6760475755,999.569088069
86.5,6.73978386201,0.19423309292,0.00499715929771,34.7246058488,999.56783878
86.75,6.739449205,0.193952215383,0.00499716553708,34.7730939026,999.566589488
87,6.7391159601,0.193672551887,0.00499717177647,34.8215120406,999.565340195
87.25,6.73878411736,0.193394093715,0.00499717801588,34.869860564,999.564090901
87.5,6.73845366692,0.193116832237,0.00499718425531,34.9181397721,999.562841605
87.75,6.73812459902,0.19284075891,0.00499719049477,34.9663499618,999.561592307
88,6.73779690401,0.192565865276,0.00499719673425,35.0144914281,999.560343008
88.25,6.73747057233,0.192292142962,0.00499720297376,35.0625644639,999.559093707
88.5,6.7371455945,0.192019583675,0.00499720921329,35.1105693598,999.557844405
88.75,6.73682196113,0.191748179206,0.00499721545284,35.1585064046,999.556595101
89,6.73649966295,0.191477921428,0.00499722169242,35.2063758849,999.555345796
89.25,6.73617869075,0.191208802291,0.00499722793201,35.2541780855,999.554096489
89.5,6.73585903543,0.190940813826,0.00499723417164,35.301913289,999.55284718
89.75,6.73554068795,0.190673948142,0.00499724041128,35.349581776,999.55159787
90,6.73522363939,0.190408197422,0.00499724665095,35.3971838254,999.550348558
90.25,6.73490788089,0.190143553929,0.00499725289064,35.4447197138,999.549099245
90.5,6.73459340369,0.189880009997,0.00499725913036,35.4921897163,999.54784993
90.75,6.7342801991,0.189617558038,0.0049972653701,35.5395941058,999.546600614
91,6.73396825853,0.189356190533,0.00499727160986,35.5869331535,999.545351296
91.25,6.73365757345,0.189095900039,0.00499727784965,35.6342071285,999.544101977
91.5,6.73334813543,0.188836679182,0.00499728408946,35.6814162983,999.542852655
91.75,6.7330399361,0.18857852066,0.00499729032929,35.7285609284,999.541603333
92,6.73273296719,0.188321417238,0.00499729656914,35.7756412828,999.540354009
92.25,6.73242722049,0.188065361753,0.00499730280902,35.8226576232,999.539104683
92.5,6.73212268788,0.187810347108,0.00499730904893,35.86961021,999.537855356
92.75,6.7318193613,0.187556366273,0.00499731528885,35.9164993015,999.536606027
93,6.73151723278,0.187303412285,0.0049973215288,35.9633251546,999.535356697
93.25,6.73121629441,0.187051478246,0.00499732776877,36.0100880242,999.534107365
93.5,6.73091653837,0.186800557323,0.00499733400877,36.0567881635,999.532858031
93.75,6.73061795689,0.186550642747,0.00499734024879,36.1034258242,999.531608696
94,6.7303205423,0.186301727811,0.00499734648883,36.1500012561,999.530359359
94.25,6.73002428697,0.186053805873,0.0049973527289,36.1965147076,999.529110021
94.5,6.72972918336,0.185806870349,0.00499735896899,36.2429664252,999.527860682
94.75,6.72943522399,0.185560914719,0.0049973652091,36.2893566539,999.52661134
95,6.72914240146,0.185315932522,0.00499737144924,36.335685637,999.525361997
95.25,6.72885070841,0.185071917356,0.0049973776894,36.3819536163,999.524112653
95.5,6.72856013757,0.184828862878,0.00499738392958,36.4281608321,999.522863307
95.75,6.72827068174,0.184586762805,0.00499739016979,36.4743075228,999.521613959
96,6.72798233377,0.184345610907,0.00499739641002,36.5203939255,999.52036461
96.25,6.72769508657,0.184105401015,0.00499740265027,36.5664202757,999.51911526
96.5,6.72740893312,0.183866127015,0.00499740889055,36.6123868075,999.517865907
96.75,6.72712386648,0.183627782847,0.00499741513085,36.6582937532,999.516616554
97,6.72683987975,0.183390362507,0.00499742137117,36.7041413438,999.515367198
97.25,6.72655696609,0.183153860044,0.00499742761152,36.7499298089,999.514117841
97.5,6.72627511874,0.182918269562,0.00499743385189,36.7956593762,999.512868483
97.75,6.72599433098,0.182683585218,0.00499744009228,36.8413302725,999.511619123
98,6.72571459616,0.182449801219,0.0049974463327,36.8869427228,999.510369761
98.25,6.72543590768,0.182216911825,0.00499745257314,36.9324969508,999.509120398
98.5,6.72515825901,0.181984911348,0.0049974588136,36.9779931786,999.507871034
98.75,6.72488164367,0.18175379415,0.00499746505409,37.0234316272,999.506621667
99,6.72460605523,0.181523554642,0.0049974712946,37.0688125158,999.505372299
99.25,6.72433148733,0.181294187286,0.00499747753513,37.1141360627,999.50412293
99.5,6.72405793366,0.18106568659,0.00499748377569,37.1594024843,999.502873559
99.75,6.72378538796,0.180838047113,0.00499749001627,37.2046119961,999.501624187
100,6.72351384403,0.180611263462,0.00499749625688,37.249764812,999.500374813
100.25,6.72324329571,0.180385330287,0.0049975024975,37.2948611445,999.499125437
100.5,6.72297373691,0.180160242291,0.00499750873815,37.3399012051,999.49787606
100.75,6.72270516159,0.179935994217,0.00499751497883,37.3848852037,999.496626681
101,6.72243756375,0.179712580857,0.00499752121953,37.4298133489,999.495377301
101.25,6.72217093745,0.179489997048,0.00499752746025,37.4746858481,999.494127919
101.5,6.7219052768,0.179268237671,0.00499753370099,37.5195029075,999.492878535
101.75,6.72164057596,0.179047297651,0.00499753994176,37.564264732,999.49162915
102,6.72137682914,0.178827171956,0.00499754618255,37.6089715249,999.490379764
102.25,6.72111403059,0.178607855598,0.00499755242336,37.6536234888,999.489130376
102.5,6.72085217462,0.178389343632,0.0049975586642,37.6982208248,999.487880986
102.75,6.72059125559,0.178171631155,0.00499756490506,37.7427637325,999.486631595
103,6.72033126789,0.177954713305,0.00499757114595,37.7872524109,999.485382202
103.25,6.72007220597,0.177738585261,0.00499757738686,37.8316870572,999.484132808
103.5,6.71981406433,0.177523242245,0.00499758362779,37.8760678677,999.482883412
103.75,6.7195568375,0.177308679517,0.00499758986874,37.9203950376,999.481634014
104,6.71930052008,0.177094892378,0.00499759610972,37.9646687607,999.480384615
104.25,6.71904510669,0.176881876168,0.00499760235072,38.0088892298,999.479135215
104.5,6.718790592,0.176669626268,0.00499760859175,38.0530566363,999.477885813
104.75,6.71853697074,0.176458138094,0.00499761483279,38.0971711709,999.476636409
105,6.71828423766,0.176247407103,0.00499762107387,38.1412330226,999.475387004
105.25,6.71803238757,0.176037428791,0.00499762731496,38.1852423798,999.474137597
105.5,6.71778141533,0.175828198687,0.00499763355608,38.2291994295,999.472888188
105.75,6.71753131581,0.175619712362,0.00499763979722,38.2731043576,999.471638778
106,6.71728208395,0.17541196542,0.00499764603839,38.3169573489,999.470389367
106.25,6.71703371472,0.175204953503,0.00499765227957,38.3607585873,999.469139954
106.5,6.71678620314,0.174998672288,0.00499765852079,38.4045082554,999.467890539
106.75,6.71653954426,0.174793117489,0.00499766476202,38.4482065348,999.466641123
107,6.71629373317,0.174588284854,0.00499767100328,38.491853606,999.465391705
107.25,6.716048765,0.174384170165,0.00499767724456,38.5354496485,999.464142286
107.5,6.71580463493,0.17418076924,0.00499768348587,38.5789948408,999.462892865
107.75,6.71556133817,0.173978077929,0.0049976897272,38.6224893603,999.461643443
108,6.71531886996,0.173776092119,0.00499769596855,38.6659333833,999.460394019
108.25,6.7150772256,0.173574807727,0.00499770220992,38.7093270853,999.459144593
108.5,6.71483640041,0.173374220704,0.00499770845132,38.7526706404,999.457895166
108.75,6.71459638975,0.173174327035,0.00499771469275,38.7959642222,999.456645737
109,6.71435718902,0.172975122735,0.00499772093419,38.8392080029,999.455396307
109.25,6.71411879365,0.172776603852,0.00499772717566,38.8824021539,999.454146875
109.5,6.71388119912,0.172578766468,0.00499773341715,38.9255468455,999.452897442
109.75,6.71364440093,0.172381606691,0.00499773965867,38.9686422471,999.451648007
110,6.71340839462,0.172185120666,0.00499774590021,39.0116885273,999.450398571
110.25,6.71317317577,0.171989304563,0.00499775214177,39.0546858535,999.449149133
110.5,6.71293874,0.171794154587,0.00499775838336,39.0976343921,999.447899693
110.75,6.71270508294,0.171599666971,0.00499776462497,39.1405343088,999.446650252
111,6.71247220028,0.171405837978,0.0049977708666,39.1833857683,999.445400809
111.25,6.71224008773,0.171212663899,0.00499777710825,39.2261889343,999.444151365
111.5,6.71200874104,0.171020141057,0.00499778334993,39.2689439696,999.442901919
111.75,6.71177815598,0.170828265801,0.00499778959164,39.311651036,999.441652472
112,6.71154832837,0.170637034512,0.00499779583336,39.3543102947,999.440403023
112.25,6.71131925406,0.170446443595,0.00499780207511,39.3969219056,999.439153572
112.5,6.71109092891,0.170256489486,0.00499780831689,39.4394860279,999.43790412
112.75,6.71086334884,0.170067168648,0.00499781455868,39.4820028201,999.436654666
113,6.71063650978,0.169878477572,0.0049978208005,39.5244724395,999.435405211
113.25,6.7104104077,0.169690412775,0.00499782704235,39.5668950427,999.434155754
113.5,6.71018503861,0.169502970801,0.00499783328421,39.6092707854,999.432906296
113.75,6.70996039854,0.169316148221,0.0049978395261,39.6515998224,999.431656836
114,6.70973648354,0.169129941633,0.00499784576802,39.6938823078,999.430407375
114.25,6.70951328972,0.168944347661,0.00499785200995,39.7361183948,999.429157912
114.5,6.70929081318,0.168759362953,0.00499785825191,39.7783082355,999.427908447
114.75,6.70906905007,0.168574984184,0.0049978644939,39.8204519815,999.426658981
115,6.70884799659,0.168391208056,0.0049978707359,39.8625497835,999.425409513
115.25,6.70862764893,0.168208031292,0.00499787697793,39.9046017914,999.424160044
115.5,6.70840800333,0.168025450644,0.00499788321999,39.946608154,999.422910573
115.75,6.70818905605,0.167843462887,0.00499788946206,39.9885690198,999.421661101
116,6.70797080339,0.167662064819,0.00499789570417,40.030484536,999.420411627
116.25,6.70775324166,0.167481253263,0.00499790194629,40.0723548493,999.419162152
116.5,6.70753636721,0.167301025068,0.00499790818844,40.1141801055,999.417912674
116.75,6.70732017641,0.167121377104,0.00499791443061,40.1559604498,999.416663196
117,6.70710466567,0.166942306266,0.0049979206728,40.1976960264,999.415413716
117.25,6.70688983141,0.16676380947,0.00499792691502,40.2393869788,999.414164234
117.5,6.70667567008,0.166585883659,0.00499793315726,40.2810334497,999.412914751
117.75,6.70646217817,0.166408525794,0.00499793939952,40.3226355811,999.411665266
118,6.70624935218,0.166231732862,0.00499794564181,40.3641935143,999.410415779
118.25,6.70603718863,0.166055501871,0.00499795188412,40.4057073898,999.409166291
118.5,6.70582568409,0.165879829851,0.00499795812646,40.4471773473,999.407916802
118.75,6.70561483513,0.165704713856,0.00499796436881,40.4886035257,999.406667311
119,6.70540463837,0.165530150958,0.0049979706112,40.5299860635,999.405417818
119.25,6.70519509042,0.165356138253,0.0049979768536,40.571325098,999.404168324
119.5,6.70498618796,0.165182672859,0.00499798309603,40.6126207662,999.402918828
119.75,6.70477792765,0.165009751912,0.00499798933848,40.6538732042,999.401669331
120,6.70457030619,0.164837372573,0.00499799558095,40.6950825474,999.400419832
120.25,6.70436332032,0.16466553202,0.00499800182345,40.7362489304,999.399170332
120.5,6.70415696679,0.164494227453,0.00499800806597,40.7773724872,999.39792083
120.75,6.70395124236,0.164323456093,0.00499801430852,40.8184533513,999.396671326
121,6.70374614383,0.164153215181,0.00499802055109,40.8594916551,999.395421821
121.25,6.70354166803,0.163983501976,0.00499802679368,40.9004875305,999.394172314
121.5,6.7033378118,0.163814313759,0.00499803303629,40.941441109,999.392922806
121.75,6.70313457199,0.163645647831,0.00499803927893,40.9823525209,999.391673296
122,6.7029319455,0.163477501509,0.00499804552159,41.0232218963,999.390423785
122.25,6.70272992923,0.163309872133,0.00499805176428,41.0640493644,999.389174272
122.5,6.70252852012,0.163142757059,0.00499805800699,41.1048350536,999.387924757
122.75,6.70232771511,0.162976153665,0.00499806424972,41.145579092,999.386675241
123,6.70212751119,0.162810059345,0.00499807049248,41.1862816069,999.385425724
123.25,6.70192790534,0.162644471513,0.00499807673525,41.2269427247,999.384176204
123.5,6.70172889457,0.162479387601,0.00499808297806,41.2675625716,999.382926684
123.75,6.70153047594,0.162314805058,0.00499808922088,41.3081412729,999.381677161
124,6.70133264648,0.162150721354,0.00499809546373,41.3486789533,999.380427637
124.25,6.70113540329,0.161987133973,0.0049981017066,41.3891757367,999.379178112
124.5,6.70093874346,0.16182404042,0.0049981079495,41.4296317468,999.377928585
124.75,6.7007426641,0.161661438216,0.00499811419242,41.4700471064,999.376679056
125,6.70054716236,0.161499324899,0.00499812043536,41.5104219376,999.375429526
125.25,6.70035223539,0.161337698026,0.00499812667833,41.5507563621,999.374179995
125.5,6.70015788037,0.161176555169,0.00499813292132,41.5910505009,999.372930461
125.75,6.6999640945,0.161015893917,0.00499813916433,41.6313044744,999.371680927
126,6.69977087499,0.160855711878,0.00499814540737,41.6715184024,999.37043139
126.25,6.69957821908,0.160696006675,0.00499815165043,41.711692404,999.369181852
126.5,6.69938612402,0.160536775948,0.00499815789351,41.751826598,999.367932313
126.75,6.69919458709,0.160378017352,0.00499816413661,41.7919211024,999.366682772
127,6.69900360557,0.160219728559,0.00499817037974,41.8319760345,999.365433229
127.25,6.69881317677,0.160061907258,0.0049981766229,41.8719915113,999.364183685
127.5,6.69862329803,0.159904551153,0.00499818286607,41.9119676491,999.362934139
127.75,6.69843396669,0.159747657963,0.00499818910927,41.9519045636,999.361684592
128,6.69824518011,0.159591225425,0.0049981953525,41.99180237,999.360435043
128.25,6.69805693567,0.159435251288,0.00499820159574,42.0316611828,999.359185493
128.5,6.69786923078,0.15927973332,0.00499820783901,42.0714811161,999.357935941
128.75,6.69768206285,0.159124669302,0.00499821408231,42.1112622834,999.356686387
129,6.69749542932,0.15897005703,0.00499822032562,42.1510047977,999.355436832
129.25,6.69730932763,0.158815894315,0.00499822656896,42.1907087713,999.354187276
129.5,6.69712375526,0.158662178985,0.00499823281233,42.230374316,999.352937717
129.75,6.69693870969,0.158508908879,0.00499823905572,42.2700015432,999.351688158
130,6.69675418841,0.158356081855,0.00499824529913,42.3095905637,999.350438596
130.25,6.69657018896,0.15820369578,0.00499825154256,42.3491414876,999.349189034
130.5,6.69638670887,0.158051748541,0.00499825778602,42.3886544248,999.347939469
130.75,6.69620374568,0.157900238035,0.0049982640295,42.4281294843,999.346689903
131,6.69602129696,0.157749162174,0.004998270273,42.4675667748,999.345440335
131.25,6.6958393603,0.157598518886,0.00499827651653,42.5069664046,999.344190766
131.5,6.6956579333,0.15744830611,0.00499828276008,42.5463284811,999.342941196
131.75,6.69547701357,0.157298521801,0.00499828900365,42.5856531115,999.341691623
132,6.69529659874,0.157149163926,0.00499829524725,42.6249404025,999.34044205
132.25,6.69511668647,0.157000230466,0.00499830149087,42.6641904601,999.339192474
132.5,6.6949372744,0.156851719415,0.00499830773452,42.70340339,999.337942897
132.75,6.69475836022,0.156703628781,0.00499831397819,42.7425792972,999.336693319
133,6.69457994162,0.156555956585,0.00499832022188,42.7817182863,999.335443739
133.25,6.6944020163,0.15640870086,0.00499832646559,42.8208204615,999.334194157
133.5,6.69422458199,0.156261859654,0.00499833270933,42.8598859265,999.332944574
133.75,6.69404763643,0.156115431025,0.00499833895309,42.8989147842,999.331694989
134,6.69387117736,0.155969413046,0.00499834519688,42.9379071375,999.330445403
134.25,6.69369520256,0.155823803802,0.00499835144068,42.9768630884,999.329195815
134.5,6.69351970979,0.15567860139,0.00499835768452,43.0157827388,999.327946226
134.75,6.69334469686,0.155533803919,0.00499836392837,43.0546661898,999.326696635
135,6.69317016158,0.155389409511,0.00499837017225,43.0935135421,999.325447042
135.25,6.69299610176,0.155245416301,0.00499837641615,43.1323248962,999.324197448
135.5,6.69282251524,0.155101822434,0.00499838266008,43.1711003518,999.322947852
135.75,6.69264939988,0.154958626069,0.00499838890402,43.2098400083,999.321698255
136,6.69247675353,0.154815825376,0.004998395148,43.2485439647,999.320448656
136.25,6.69230457408,0.154673418535,0.00499840139199,43.2872123193,999.319199056
136.5,6.69213285941,0.154531403741,0.00499840763601,43.3258451702,999.317949454
136.75,6.69196160743,0.154389779199,0.00499841388005,43.364442615,999.316699851
137,6.69179081606,0.154248543125,0.00499842012412,43.4030047508,999.315450246
137.25,6.69162048322,0.154107693747,0.00499842636821,43.4415316743,999.314200639
137.5,6.69145060687,0.153967229304,0.00499843261232,43.4800234816,999.312951031
137.75,6.69128118495,0.153827148047,0.00499843885646,43.5184802686,999.311701421
138,6.69111221543,0.153687448236,0.00499844510062,43.5569021307,999.31045181
138.25,6.69094369631,0.153548128145,0.0049984513448,43.5952891627,999.309202197
138.5,6.69077562556,0.153409186057,0.004998457589,43.6336414592,999.307952583
138.75,6.69060800121,0.153270620265,0.00499846383323,43.6719591143,999.306702967
139,6.69044082127,0.153132429076,0.00499847007749,43.7102422215,999.305453349
139.25,6.69027408376,0.152994610805,0.00499847632176,43.7484908742,999.30420373
139.5,6.69010778674,0.152857163777,0.00499848256606,43.7867051652,999.302954109
139.75,6.68994192827,0.15272008633,0.00499848881039,43.8248851868,999.301704487
140,6.6897765064,0.152583376811,0.00499849505473,43.863031031,999.300454863
140.25,6.68961151922,0.152447033578,0.0049985012991,43.9011427894,999.299205238
140.5,6.68944696482,0.152311054998,0.00499850754349,43.9392205531,999.297955611
140.75,6.6892828413,0.152175439448,0.00499851378791,43.977264413,999.296705983
141,6.68911914679,0.152040185318,0.00499852003235,44.0152744593,999.295456353
141.25,6.6889558794,0.151905291005,0.00499852627682,44.0532507821,999.294206721
141.5,6.68879303728,0.151770754917,0.0049985325213,44.0911934708,999.292957088
141.75,6.68863061857,0.151636575471,0.00499853876581,44.1291026147,999.291707453
142,6.68846862144,0.151502751096,0.00499854501035,44.1669783024,999.290457817
142.25,6.68830704405,0.151369280228,0.0049985512549,44.2048206225,999.289208179
142.5,6.68814588459,0.151236161314,0.00499855749948,44.2426296628,999.28795854
142.75,6.68798514126,0.151103392811,0.00499856374409,44.280405511,999.286708899
143,6.68782481226,0.150970973184,0.00499856998871,44.3181482543,999.285459257
143.25,6.6876648958,0.150838900908,0.00499857623337,44.3558579795,999.284209612
143.5,6.68750539012,0.150707174469,0.00499858247804,44.3935347732,999.282959967
143.75,6.68734629345,0.15057579236,0.00499858872274,44.4311787213,999.28171032
144,6.68718760403,0.150444753083,0.00499859496746,44.4687899095,999.280460671
144.25,6.68702932013,0.150314055151,0.0049986012122,44.5063684233,999.279211021
144.5,6.68687144002,0.150183697085,0.00499860745697,44.5439143476,999.277961369
144.75,6.68671396197,0.150053677415,0.00499861370176,44.5814277669,999.276711715
145,6.68655688427,0.149923994679,0.00499861994658,44.6189087656,999.27546206
145.25,6.68640020523,0.149794647425,0.00499862619141,44.6563574275,999.274212404
145.5,6.68624392315,0.149665634211,0.00499863243627,44.693773836,999.272962746
145.75,6.68608803636,0.1495369536,0.00499863868116,44.7311580744,999.271713086
146,6.68593254317,0.149408604167,0.00499864492607,44.7685102255,999.270463425
146.25,6.68577744194,0.149280584493,0.004998651171,44.8058303716,999.269213762
146.5,6.68562273102,0.149152893171,0.00499865741595,44.8431185949,999.267964098
146.75,6.68546840875,0.149025528798,0.00499866366093,44.8803749771,999.266714432
147,6.68531447352,0.148898489982,0.00499866990593,44.9175995996,999.265464764
147.25,6.68516092369,0.148771775339,0.00499867615096,44.9547925434,999.264215095
147.5,6.68500775766,0.148645383494,0.00499868239601,44.9919538893,999.262965425
147.75,6.68485497383,0.148519313078,0.00499868864108,45.0290837175,999.261715752
148,6.6847025706,0.148393562732,0.00499869488618,45.0661821082,999.260466079
148.25,6.68455054638,0.148268131103,0.00499870113129,45.103249141,999.259216403
148.5,6.68439889961,0.148143016849,0.00499870737644,45.1402848952,999.257966727
148.75,6.68424762872,0.148018218633,0.0049987136216,45.1772894499,999.256717048
149,6.68409673214,0.147893735128,0.00499871986679,45.2142628837,999.255467368
149.25,6.68394620834,0.147769565013,0.004998726112,45.2512052749,999.254217687
149.5,6.68379605578,0.147645706976,0.00499873235724,45.2881167017,999.252968004
149.75,6.68364627292,0.147522159713,0.0049987386025,45.3249972416,999.251718319
150,6.68349685825,0.147398921926,0.00499874484778,45.3618469721,999.250468633
150.25,6.68334781025,0.147275992325,0.00499875109309,45.3986659701,999.249218945
150.5,6.68319912742,0.147153369629,0.00499875733842,45.4354543125,999.247969256
150.75,6.68305080826,0.147031052564,0.00499876358377,45.4722120757,999.246719565
151,6.6829028513,0.146909039861,0.00499876982915,45.5089393357,999.245469872
151.25,6.68275525504,0.146787330262,0.00499877607455,45.5456361682,999.244220178
151.5,6.68260801803,0.146665922513,0.00499878231997,45.5823026489,999.242970483
151.75,6.68246113881,0.14654481537,0.00499878856542,45.6189388527,999.241720786
152,6.68231461591,0.146424007593,0.00499879481089,45.6555448546,999.240471087
152.25,6.68216844789,0.146303497953,0.00499880105638,45.6921207291,999.239221387
152.5,6.68202263333,0.146183285226,0.0049988073019,45.7286665504,999.237971685
152.75,6.68187717079,0.146063368193,0.00499881354744,45.7651823924,999.236721981
153,6.68173205885,0.145943745647,0.004998819793,45.8016683288,999.235472276
153.25,6.6815872961,0.145824416382,0.00499882603859,45.8381244329,999.23422257
153.5,6.68144288114,0.145705379204,0.0049988322842,45.8745507777,999.232972862
153.75,6.68129881256,0.145586632923,0.00499883852983,45.910947436,999.231723152
154,6.681155089,0.145468176356,0.00499884477549,45.9473144801,999.230473441
154.25,6.68101170905,0.145350008328,0.00499885102117,45.9836519821,999.229223728
154.5,6.68086867135,0.145232127669,0.00499885726687,46.0199600141,999.227974014
154.75,6.68072597454,0.145114533218,0.0049988635126,46.0562386474,999.226724298
155,6.68058361726,0.144997223817,0.00499886975835,46.0924879533,999.225474581
155.25,6.68044159816,0.144880198317,0.00499887600412,46.1287080029,999.224224862
155.5,6.68029991589,0.144763455576,0.00499888224992,46.1648988668,999.222975141
155.75,6.68015856913,0.144646994457,0.00499888849574,46.2010606154,999.221725419
156,6.68001755654,0.144530813829,0.00499889474159,46.2371933189,999.220475695
156.25,6.67987687681,0.14441491257,0.00499890098746,46.273297047,999.21922597
156.5,6.67973652861,0.144299289561,0.00499890723335,46.3093718694,999.217976243
156.75,6.67959651066,0.144183943691,0.00499891347926,46.3454178553,999.216726515
157,6.67945682164,0.144068873855,0.0049989197252,46.3814350738,999.215476785
157.25,6.67931746028,0.143954078954,0.00499892597116,46.4174235935,999.214227053
157.5,6.67917842527,0.143839557895,0.00499893221715,46.453383483,999.21297732
157.75,6.67903971536,0.143725309592,0.00499893846315,46.4893148104,999.211727586
158,6.67890132926,0.143611332964,0.00499894470919,46.5252176436,999.21047785
158.25,6.67876326571,0.143497626936,0.00499895095524,46.5610920504,999.209228112
158.5,6.67862552347,0.143384190439,0.00499895720132,46.596938098,999.207978372
158.75,6.67848810127,0.143271022411,0.00499896344742,46.6327558536,999.206728632
159,6.67835099789,0.143158121794,0.00499896969355,46.668545384,999.205478889
159.25,6.67821421207,0.143045487538,0.0049989759397,46.7043067559,999.204229145
159.5,6.6780777426,0.142933118596,0.00499898218587,46.7400400356,999.2029794
159.75,6.67794158824,0.142821013929,0.00499898843206,46.775745289,999.201729653
160,6.6778057478,0.142709172503,0.00499899467828,46.8114225822,999.200479904
160.25,6.67767022004,0.14259759329,0.00499900092453,46.8470719805,999.199230154
160.5,6.67753500379,0.142486275267,0.00499900717079,46.8826935493,999.197980402
160.75,6.67740009782,0.142375217417,0.00499901341708,46.9182873537,999.196730649
161,6.67726550097,0.142264418728,0.00499901966339,46.9538534583,999.195480894
161.25,6.67713121204,0.142153878194,0.00499902590973,46.9893919279,999.194231137
161.5,6.67699722986,0.142043594815,0.00499903215609,47.0249028266,999.192981379
161.75,6.67686355326,0.141933567594,0.00499903840247,47.0603862185,999.191731619
162,6.67673018107,0.141823795543,0.00499904464888,47.0958421674,999.190481858
162.25,6.67659711213,0.141714277676,0.00499905089531,47.1312707368,999.189232096
162.5,6.6764643453,0.141605013016,0.00499905714176,47.1666719901,999.187982331
162.75,6.67633187943,0.141496000586,0.00499906338824,47.2020459902,999.186732565
163,6.67619971337,0.14138723942,0.00499906963474,47.2373928001,999.185482798
163.25,6.676067846,0.141278728553,0.00499907588126,47.2727124822,999.184233029
163.5,6.67593627618,0.141170467027,0.00499908212781,47.308005099,999.182983259
163.75,6.6758050028,0.141062453889,0.00499908837438,47.3432707124,999.181733486
164,6.67567402473,0.14095468819,0.00499909462097,47.3785093845,999.180483713
164.25,6.67554334088,0.140847168989,0.00499910086759,47.4137211767,999.179233938
164.5,6.67541295012,0.140739895346,0.00499910711423,47.4489061506,999.177984161
164.75,6.67528285138,0.140632866328,0.0049991133609,47.4840643671,999.176734382
165,6.67515304355,0.140526081008,0.00499911960758,47.5191958874,999.175484603
165.25,6.67502352555,0.140419538462,0.00499912585429,47.554300772,999.174234821
165.5,6.67489429629,0.140313237772,0.00499913210103,47.5893790814,999.172985038
165.75,6.67476535471,0.140207178025,0.00499913834779,47.624430876,999.171735254
166,6.67463669972,0.140101358312,0.00499914459457,47.6594562155,999.170485467
166.25,6.67450833027,0.139995777729,0.00499915084137,47.69445516,999.16923568
166.5,6.6743802453,0.139890435377,0.0049991570882,47.7294277688,999.16798589
166.75,6.67425244376,0.139785330362,0.00499916333505,47.7643741014,999.1667361
167,6.67412492459,0.139680461793,0.00499916958193,47.7992942168,999.165486307
167.25,6.67399768676,0.139575828787,0.00499917582882,47.834188174,999.164236513
167.5,6.67387072922,0.139471430463,0.00499918207574,47.8690560317,999.162986718
167.75,6.67374405095,0.139367265945,0.00499918832269,47.9038978481,999.161736921
168,6.67361765092,0.139263334362,0.00499919456966,47.9387136817,999.160487122
168.25,6.67349152811,0.139159634847,0.00499920081665,47.9735035904,999.159237322
168.5,6.67336568151,0.139056166537,0.00499920706367,48.0082676321,999.15798752
168.75,6.67324011009,0.138952928577,0.0049992133107,48.0430058642,999.156737717
169,6.67311481287,0.138849920111,0.00499921955777,48.0777183443,999.155487912
169.25,6.67298978883,0.138747140292,0.00499922580485,48.1124051293,999.154238105
169.5,6.67286503698,0.138644588274,0.00499923205196,48.1470662764,999.152988297
169.75,6.67274055634,0.138542263219,0.00499923829909,48.1817018422,999.151738488
170,6.67261634591,0.138440164289,0.00499924454625,48.2163118833,999.150488677
170.25,6.67249240472,0.138338290654,0.00499925079343,48.2508964559,999.149238864
170.5,6.6723687318,0.138236641487,0.00499925704063,48.2854556163,999.14798905
170.75,6.67224532616,0.138135215965,0.00499926328786,48.3199894203,999.146739234
171,6.67212218685,0.138034013268,0.00499926953511,48.3544979236,999.145489416
171.25,6.67199931291,0.137933032583,0.00499927578238,48.3889811818,999.144239597
171.5,6.67187670338,0.137832273099,0.00499928202968,48.42343925,999.142989777
171.75,6.67175435732,0.13773173401,0.00499928827699,48.4578721835,999.141739955
172,6.67163227376,0.137631414513,0.00499929452434,48.4922800372,999.140490131
172.25,6.67151045179,0.137531313812,0.0049993007717,48.5266628656,999.139240306
172.5,6.67138889045,0.137431431111,0.00499930701909,48.5610207234,999.137990479
172.75,6.67126758881,0.137331765621,0.00499931326651,48.5953536648,999.136740651
173,6.67114654596,0.137232316556,0.00499931951394,48.6296617439,999.135490821
173.25,6.67102576096,0.137133083134,0.0049993257614,48.6639450147,999.13424099
173.5,6.6709052329,0.137034064577,0.00499933200889,48.6982035309,999.132991157
173.75,6.67078496087,0.13693526011,0.0049993382564,48.7324373459,999.131741322
174,6.67066494396,0.136836668965,0.00499934450393,48.7666465131,999.130491486
174.25,6.67054518126,0.136738290373,0.00499935075148,48.8008310857,999.129241648
174.5,6.67042567187,0.136640123574,0.00499935699906,48.8349911166,999.127991809
174.75,6.6703064149,0.136542167808,0.00499936324666,48.8691266586,999.126741968
175,6.67018740946,0.13644442232,0.00499936949428,48.9032377642,999.125492126
175.25,6.67006865467,0.136346886359,0.00499937574193,48.9373244857,999.124242282
175.5,6.66995601436,0.136249579139,0.0049993819896,48.9713868805,999.122992436
175.75,6.6698516705,0.136152701692,0.0049993882373,49.005425056,999.121742589
176,6.66974754525,0.136056072878,0.00499939448501,49.0394390742,999.120492741
176.25,6.66964363785,0.135959649438,0.00499940073275,49.0734289865,999.119242891
176.5,6.66953994754,0.135863430646,0.00499940698052,49.1073948442,999.117993039
176.75,6.66943647356,0.135767415779,0.00499941322831,49.1413366981,999.116743186
177,6.66933321517,0.135671604119,0.00499941947612,49.1752545992,999.115493331
177.25,6.6692301716,0.13557599495,0.00499942572395,49.2091485979,999.114243474
177.5,6.66912734211,0.135480587559,0.00499943197181,49.2430187448,999.112993616
177.75,6.66902472597,0.135385381239,0.00499943821969,49.2768650901,999.111743757
178,6.66892232242,0.135290375283,0.0049994444676,49.3106876839,999.110493896
178.25,6.66882013074,0.13519556899,0.00499945071553,49.3444865762,999.109244033
178.5,6.66871815019,0.135100961662,0.00499945696348,49.3782618166,999.107994169
178.75,6.66861638005,0.135006552605,0.00499946321146,49.4120134547,999.106744303
179,6.66851481959,0.134912341125,0.00499946945945,49.44574154,999.105494435
179.25,6.66841346808,0.134818326537,0.00499947570748,49.4794461217,999.104244567
179.5,6.66831232481,0.134724508154,0.00499948195552,49.5131272487,999.102994696
179.75,6.66821138907,0.134630885296,0.00499948820359,49.54678497,999.101744824
180,6.66811066015,0.134537457284,0.00499949445169,49.5804193343,999.10049495
