#include(macros.inc)

%Coupled model
[top]
components: converter10@converter1top pulse10@pulse1top  DEVS_BASIC_COUPLED_stock1 firstPulse0@firstPulsetop interval0@intervaltop volume0@volumetop graphical10@graphical1DEVS_COUPLED_top PULSE_V_volume_I_interval_pulse10@PULSE_V_volume_I_interval_pulse1DEVS_COUPLED_top
% In ports
in: in_port_firstPulse in_port_graphical1 in_port_interval in_port_volume
% Out ports
out: out_port_PULSE_V_volume_I_interval_pulse1 out_port_converter1 out_port_flow1 out_port_graphical1 out_port_pulse1 out_port_stock1
% Input connections
link: in_port_firstPulse in_port_firstPulse@firstPulse0
link: in_port_interval in_port_interval@interval0
link: in_port_volume in_port_volume@volume0
% Output connections
link: out_port_PULSE_V_volume_I_interval_pulse1@PULSE_V_volume_I_interval_pulse10 out_port_PULSE_V_volume_I_interval_pulse1
link: out_port_converter1@converter10 out_port_converter1
link: out_port_flow1@DEVS_BASIC_COUPLED_stock1 out_port_flow1
link: out_port_pulse1@pulse10 out_port_pulse1
link: out_port_stock1@DEVS_BASIC_COUPLED_stock1 out_port_stock1
% Internal connections
link: out_port_converter1@converter10 in_port_converter1@DEVS_BASIC_COUPLED_stock1
link: out_port_pulse1@pulse10 in_port_pulse1@DEVS_BASIC_COUPLED_stock1
link: out_port_firstPulse@firstPulse0 in_port_firstPulse@PULSE_V_volume_I_interval_pulse10
link: out_port_interval@interval0 in_port_interval@PULSE_V_volume_I_interval_pulse10
link: out_port_volume@volume0 in_port_volume@PULSE_V_volume_I_interval_pulse10
link: out_port_graphical1@graphical10 in_port_graphical1@converter10
link: out_port_PULSE_V_volume_I_interval_pulse1@PULSE_V_volume_I_interval_pulse10 in_port_PULSE_V_volume_I_interval_pulse1@pulse10
%Coupled model
[DEVS_BASIC_COUPLED_stock1]
components: flow1_stock11@flow1_stock1DEVS_BASIC_COUPLED_stock1 Totstock11@Totstock1DEVS_BASIC_COUPLED_stock1 stock11@stock1DEVS_BASIC_COUPLED_stock1
% In ports
in: in_port_converter1 in_port_pulse1
% Out ports
out: out_port_flow1 out_port_stock1
% Input connections
link: in_port_converter1 in_port_converter1@flow1_stock11
link: in_port_pulse1 in_port_pulse1@flow1_stock11
% Output connections
link: out_port_flow1@flow1_stock11 out_port_flow1
link: out_port_stock1@stock11 out_port_stock1
% Internal connections
link: out_port_flow1_stock1@flow1_stock11 in_plus_port_flow1_stock1@Totstock11
link: out_port_stock1@stock11 in_port_stock1@flow1_stock11
link: out_port_Totstock1@Totstock11 in_port_Totstock1@stock11
[stock11]
% Atomic model DEVSIntegrator
x0: 100
non_negative: 0
dQMin: 0.001
dQRel: 0.001
