#include(macros.inc)

%Coupled model
[top]
components:  DEVS_BASIC_COUPLED_stock1 exra0@exratop firstPulse0@firstPulsetop interval0@intervaltop volume0@volumetop
% In ports
in: in_port_exra in_port_firstPulse in_port_interval in_port_volume
% Out ports
out: out_port_flow1 out_port_flow2 out_port_flow3 out_port_stock1
% Input connections
link: in_port_exra in_port_exra@exra0
link: in_port_firstPulse in_port_firstPulse@firstPulse0
link: in_port_interval in_port_interval@interval0
link: in_port_volume in_port_volume@volume0
% Output connections
link: out_port_flow1@DEVS_BASIC_COUPLED_stock1 out_port_flow1
link: out_port_flow2@DEVS_BASIC_COUPLED_stock1 out_port_flow2
link: out_port_flow3@DEVS_BASIC_COUPLED_stock1 out_port_flow3
link: out_port_stock1@DEVS_BASIC_COUPLED_stock1 out_port_stock1
% Internal connections
link: out_port_exra@exra0 in_port_exra@DEVS_BASIC_COUPLED_stock1
link: out_port_firstPulse@firstPulse0 in_port_firstPulse@DEVS_BASIC_COUPLED_stock1
link: out_port_interval@interval0 in_port_interval@DEVS_BASIC_COUPLED_stock1
link: out_port_volume@volume0 in_port_volume@DEVS_BASIC_COUPLED_stock1
%Coupled model
[DEVS_BASIC_COUPLED_stock1]
components: flow1_stock11@flow1_stock1DEVS_BASIC_COUPLED_stock1 flow3_stock11@flow3_stock1DEVS_BASIC_COUPLED_stock1 flow2_stock11@flow2_stock1DEVS_BASIC_COUPLED_stock1 Totstock11@Totstock1DEVS_BASIC_COUPLED_stock1 stock11@stock1DEVS_BASIC_COUPLED_stock1 PULSE_V_volume_I_interval_flow11@PULSE_V_volume_I_interval_flow1DEVS_BASIC_COUPLED_stock1 PULSE_V_volume_I_interval_flow21@PULSE_V_volume_I_interval_flow2DEVS_BASIC_COUPLED_stock1
% In ports
in: in_port_exra in_port_firstPulse in_port_interval in_port_volume
% Out ports
out: out_port_flow1 out_port_flow2 out_port_flow3 out_port_stock1
% Input connections
link: in_port_firstPulse in_port_firstPulse@PULSE_V_volume_I_interval_flow11
link: in_port_interval in_port_interval@PULSE_V_volume_I_interval_flow11
link: in_port_volume in_port_volume@PULSE_V_volume_I_interval_flow11
link: in_port_firstPulse in_port_firstPulse@PULSE_V_volume_I_interval_flow21
link: in_port_interval in_port_interval@PULSE_V_volume_I_interval_flow21
link: in_port_volume in_port_volume@PULSE_V_volume_I_interval_flow21
link: in_port_exra in_port_exra@flow3_stock11
% Output connections
link: out_port_flow1@flow1_stock11 out_port_flow1
link: out_port_flow2@flow2_stock11 out_port_flow2
link: out_port_flow3@flow3_stock11 out_port_flow3
link: out_port_stock1@stock11 out_port_stock1
% Internal connections
link: out_port_flow1_stock1@flow1_stock11 in_minus_port_flow1_stock1@Totstock11
link: out_port_flow2_stock1@flow2_stock11 in_plus_port_flow2_stock1@Totstock11
link: out_port_flow3_stock1@flow3_stock11 in_minus_port_flow3_stock1@Totstock11
link: out_port_PULSE_V_volume_I_interval_flow1@PULSE_V_volume_I_interval_flow11 in_port_PULSE_V_volume_I_interval_flow1@flow1_stock11
link: out_port_PULSE_V_volume_I_interval_flow2@PULSE_V_volume_I_interval_flow21 in_port_PULSE_V_volume_I_interval_flow2@flow2_stock11
link: out_port_Totstock1@Totstock11 in_port_Totstock1@stock11
[stock11]
% Atomic model DEVSIntegrator
x0: 1000
non_negative: 0
dQMin: 0.0001
dQRel: 0.0001
